{
  "easy": [
    {
      "title": "a star is born",
      "url": [
        {
          "name": "Lady Gaga, Bradley Cooper - Shallow",
          "link": "https://www.youtube.com/watch?v=bo_efYhYU2A",
          "start": 15
        },
        {
          "name": "Lady Gaga, Bradley Cooper - Always Remember Us This Way",
          "link": "https://www.youtube.com/watch?v=5vheNbQlsyU",
          "start": 75
        }
      ]
    },
    {
      "title": "aladd 1",
      "url": [
        {
          "name": "Black M - Le Prince Aladin ft. Kev Adams",
          "link": "https://www.youtube.com/watch?v=4B1ZXz70sCA",
          "start": 78
        }
      ]
    },
    {
      "title": "aladdin",
      "url": [
        {
          "name": "Ce reve bleu",
          "link": "https://www.youtube.com/watch?v=kGyS2-rZsC0",
          "start": 11
        },
        {
          "name": "Prince Ali",
          "link": "https://www.youtube.com/watch?v=H1Fv67HKdkQ",
          "start": 23
        }
      ]
    },
    {
      "title": "avengers",
      "url": [
        {
          "name": "Alan Silvestri - Main Theme",
          "link": "https://www.youtube.com/watch?v=-HHlHLBxqnc",
          "start": 0
        }
      ]
    },
    {
      "title": "bad boys",
      "url": [
        {
          "name": "Inner Circle - Main Theme",
          "link": "https://www.youtube.com/watch?v=f8HtmFtGSQo",
          "start": 18
        }
      ]
    },
    {
      "title": "batman the dark knight",
      "url": [
        {
          "name": "Hans Zimmer - Main Theme",
          "link": "https://www.youtube.com/watch?v=w1B3Mgklfd0",
          "start": 110
        }
      ]
    },
    {
      "title": "cendrillon",
      "url": [
        {
          "name": "Bibbity Bobbity Boo",
          "link": "https://www.youtube.com/watch?v=OFsG2iI7CUg",
          "start": 14
        }
      ]
    },
    {
      "title": "comment c'est loin",
      "url": [
        {
          "name": "Casseurs Flowters - Freestyle Radio Phoenix",
          "link": "https://www.youtube.com/watch?v=CULrAoOrVXE",
          "start": 77
        }
      ]
    },
    {
      "title": "dirty dancing",
      "url": [
        {
          "name": "Bill Medley - The Time Of My Life ft. Jennifer Warnes",
          "link": "https://www.youtube.com/watch?v=6eyCDj1s4NI",
          "start": 91
        }
      ]
    },
    {
      "title": "django unchained",
      "url": [
        {
          "name": "Luis Bacalov - Main Theme",
          "link": "https://www.youtube.com/watch?v=IAooXLAPoBQ",
          "start": 3
        }
      ]
    },
    {
      "title": "et",
      "url": [
        {
          "name": "John Williams - Flying",
          "link": "https://www.youtube.com/watch?v=O15x-B8PgeE",
          "start": 5
        }
      ]
    },
    {
      "title": "fast and furious 7",
      "url": [
        {
          "name": "Wiz Khalifa - See you again ft. Charlie Puth",
          "link": "https://www.youtube.com/watch?v=RgKAFK5djSk",
          "start": 0
        }
      ]
    },
    {
      "title": "fast and furious tokyo drift",
      "url": [
        {
          "name": "Teriyaki Boyz - Main Theme",
          "link": "https://www.youtube.com/watch?v=SUNt8E8EWrA",
          "start": 0
        }
      ]
    },
    {
      "title": "forrest gump",
      "url": [
        {
          "name": "Alan Silvestri - Main Theme",
          "link": "https://www.youtube.com/watch?v=FcOt6mfjxeA",
          "start": 18
        }
      ]
    },
    {
      "title": "frere des ours",
      "url": [
        {
          "name": "Je m'en vais",
          "link": "https://www.youtube.com/watch?v=UJ95Hbt5kr0",
          "start": 28
        }
      ]
    },
    {
      "title": "gardiens de la galaxie",
      "url": [
        {
          "name": "Redbone - Come and Get Your Love",
          "link": "https://www.youtube.com/watch?v=Kt-tLuszKBA",
          "start": 0
        }
      ]
    },
    {
      "title": "ghostbusters",
      "url": [
        {
          "name": "Ray Parker Jr. - Main Theme",
          "link": "https://www.youtube.com/watch?v=m9We2XsVZfc",
          "start": 10
        }
      ]
    },
    {
      "title": "gladiator",
      "url": [
        {
          "name": "Yvonne S. Moriarty - Honor Him",
          "link": "https://www.youtube.com/watch?v=-yOZEiHLuVU",
          "start": 10
        }
      ]
    },
    {
      "title": "grease",
      "url": [
        {
          "name": "You're The One That I Want",
          "link": "https://www.youtube.com/watch?v=7oKPYe53h78",
          "start": 96
        }
      ]
    },
    {
      "title": "hercule",
      "url": [
        {
          "name": "Jamais je n'avouerai",
          "link": "https://www.youtube.com/watch?v=IBiNGLT_5nc",
          "start": 43
        }
      ]
    },
    {
      "title": "hunger games",
      "url": [
        {
          "name": "Sound of Panem - The Hanging Tree",
          "link": "https://www.youtube.com/watch?v=DqhOzH8QcH4",
          "start": 0
        }
      ]
    },
    {
      "title": "inception",
      "url": [
        {
          "name": "Hans Zimmer - Time",
          "link": "https://www.youtube.com/watch?v=h2SXKI3m14s",
          "start": 60
        }
      ]
    },
    {
      "title": "indiana jones",
      "url": [
        {
          "name": "John Williams - The Raider's March",
          "link": "https://www.youtube.com/watch?v=-bTpp8PQSog",
          "start": 0
        }
      ]
    },
    {
      "title": "interstellar",
      "url": [
        {
          "name": "Hans Zimmer - Main Theme",
          "link": "https://www.youtube.com/watch?v=UDVtMYqUAyw",
          "start": 20
        }
      ]
    },
    {
      "title": "iron man 3",
      "url": [
        {
          "name": "Brian Tyler - Main Theme",
          "link": "https://www.youtube.com/watch?v=Y633472KofU",
          "start": 45
        }
      ]
    },
    {
      "title": "james bond",
      "url": [
        {
          "name": "David Arnold - Main Theme",
          "link": "https://www.youtube.com/watch?v=U9FzgsF2T-s",
          "start": 35
        }
      ]
    },
    {
      "title": "jurassic park",
      "url": [
        {
          "name": "John Williams - Main Theme",
          "link": "https://www.youtube.com/watch?v=D8zlUUrFK-M",
          "start": 47
        }
      ]
    },
    {
      "title": "kung fu panda",
      "url": [
        {
          "name": "Hans Zimmer - Hero",
          "link": "https://www.youtube.com/watch?v=JjNIU9L4sDY",
          "start": 40
        }
      ]
    },
    {
      "title": "l'age de glace",
      "url": [
        {
          "name": "Rusted Root - Send Me On My Way",
          "link": "https://www.youtube.com/watch?v=IGMabBGydC0",
          "start": 0
        }
      ]
    },
    {
      "title": "la petite sirene",
      "url": [
        {
          "name": "Sous l'Ocean",
          "link": "https://www.youtube.com/watch?v=4iQETIfbzvk",
          "start": 26
        }
      ]
    },
    {
      "title": "la reine des neiges",
      "url": [
        {
          "name": "Liberee, Delivree!",
          "link": "https://www.youtube.com/watch?v=wQP9XZc2Y_c",
          "start": 50
        }
      ]
    },
    {
      "title": "le flic de beverly hills",
      "url": [
        {
          "name": "London Starlight Orchestra - Axel F.",
          "link": "https://www.youtube.com/watch?v=8tl6jCElujI",
          "start": 18
        }
      ]
    },
    {
      "title": "le livre de la jungle",
      "url": [
        {
          "name": "Il en faut peu pour etre heureux",
          "link": "https://www.youtube.com/watch?v=peR2EDHpd4w",
          "start": 40
        },
        {
          "name": "Etre un homme comme vous",
          "link": "https://www.youtube.com/watch?v=WaSLzCw-yos",
          "start": 30
        }
      ]
    },
    {
      "title": "le roi lion",
      "url": [
        {
          "name": "L'amour brille sous les etoiles",
          "link": "https://www.youtube.com/watch?v=2isCyeEScoI",
          "start": 30
        }
      ]
    },
    {
      "title": "madagascar",
      "url": [
        {
          "name": "Sacha Baron Cohen - I Like To Move It",
          "link": "https://www.youtube.com/watch?v=hdcTmpvDO0I",
          "start": 0
        }
      ]
    },
    {
      "title": "matrix",
      "url": [
        {
          "name": "Rob Dougan - Clubbed to Death",
          "link": "https://www.youtube.com/watch?v=Brl7WmHDG-E",
          "start": 25
        }
      ]
    },
    {
      "title": "men in black",
      "url": [
        {
          "name": "Will Smith - MIB",
          "link": "https://www.youtube.com/watch?v=fiBLgEx6svA",
          "start": 13
        }
      ]
    },
    {
      "title": "mission impossible",
      "url": [
        {
          "name": "Main Theme",
          "link": "https://www.youtube.com/watch?v=XAYhNHhxN0A",
          "start": 1
        }
      ]
    },
    {
      "title": "mulan",
      "url": [
        {
          "name": "Comme un homme",
          "link": "https://www.youtube.com/watch?v=E-p6l9nioNI",
          "start": 26
        }
      ]
    },
    {
      "title": "narcos",
      "url": [
        {
          "name": "Rodrigo Amarante - Main Theme",
          "link": "https://www.youtube.com/watch?v=zNPXnAVyAUA",
          "start": 0
        }
      ]
    },
    {
      "title": "oss 117 le caire nid d espion",
      "url": [
        {
          "name": "Bambino",
          "link": "https://www.youtube.com/watch?v=xGKowUNYrKA",
          "start": 50
        }
      ]
    },
    {
      "title": "pirates des caraibes",
      "url": [
        {
          "name": "Klaus Badelt - He's a Pirate",
          "link": "https://www.youtube.com/watch?v=27mB8verLK8",
          "start": 4
        }
      ]
    },
    {
      "title": "pirates des caraibes 2: le coffre du mort",
      "url": [
        {
          "name": "L'orgue de Davy Jones",
          "link": "https://www.youtube.com/watch?v=9UfT0jVzNkw",
          "start": 30
        }
      ]
    },
    {
      "title": "pocahontas",
      "url": [
        {
          "name": "L'air du vent",
          "link": "https://www.youtube.com/watch?v=OAhCfI5hLjU",
          "start": 9
        }
      ]
    },
    {
      "title": "Princess Mononoke",
      "url": [
        {
          "name": "The Legend of Ashitaka",
          "link": "https://www.youtube.com/watch?v=1L3bkiwU5XQ",
          "start": 80
        }
      ]
    },
    {
      "title": "projet x",
      "url": [
        {
          "name": "Yeah Yeah Yeahs - Heads Will Roll",
          "link": "https://www.youtube.com/watch?v=or3U2rXxvQw",
          "start": 57
        }
      ]
    },
    {
      "title": "raiponce",
      "url": [
        {
          "name": "Ou est la vraie vie ?",
          "link": "https://www.youtube.com/watch?v=KoFOaB9c8eI",
          "start": 18
        }
      ]
    },
    {
      "title": "ratatouille",
      "url": [
        {
          "name": "Le Festin-Camille",
          "link": "https://www.youtube.com/watch?v=p_hdmt4vpBo",
          "start": 25
        }
      ]
    },
    {
      "title": "rocky",
      "url": [
        {
          "name": "Bill Conti - Gonna Fly Now",
          "link": "https://www.youtube.com/watch?v=ioE_O7Lm0I4",
          "start": 0
        }
      ]
    },
    {
      "title": "saw",
      "url": [
        {
          "name": "Charlie Clouser - Hello Zep + Overture",
          "link": "https://www.youtube.com/watch?v=hWaNoK3gN6M",
          "start": 24
        }
      ]
    },
    {
      "title": "sherlock",
      "url": [
        {
          "name": "Main Theme",
          "link": "https://www.youtube.com/watch?v=-hncC_s6XlM",
          "start": 65
        }
      ]
    },
    {
      "title": "shrek",
      "url": [
        {
          "name": "Smash Mouth - All Star",
          "link": "https://www.youtube.com/watch?v=mdt03OgLpWo",
          "start": 0
        }
      ]
    },
    {
      "title": "spider man",
      "url": [
        {
          "name": "Danny Elfman - Main Theme",
          "link": "https://www.youtube.com/watch?v=0Ac4xamCIgY",
          "start": 35
        }
      ]
    },
    {
      "title": "star wars",
      "url": [
        {
          "name": "Dark Vador Theme - John Williams - The Imperial March",
          "link": "https://www.youtube.com/watch?v=-bzWSJG93P8",
          "start": 0
        },
        {
          "name": "Star Wars - The Force Suite",
          "link": "https://www.youtube.com/watch?v=eb2zuegwcwk",
          "start": 50
        }
      ]
    },
    {
      "title": "superman",
      "url": [
        {
          "name": "John Williams - Main Theme",
          "link": "https://www.youtube.com/watch?v=78N2SP6JFaI",
          "start": 45
        }
      ]
    },
    {
      "title": "tarzan",
      "url": [
        {
          "name": "Je veux savoir",
          "link": "https://www.youtube.com/watch?v=T9ZCORwVNr8",
          "start": 37
        }
      ]
    },
    {
      "title": "terminator",
      "url": [
        {
          "name": "John Williams - Main Theme",
          "link": "https://www.youtube.com/watch?v=mpMg1upld0w",
          "start": 131
        }
      ]
    },
    {
      "title": "the mask",
      "url": [
        {
          "name": "Royal Crown Revue - Hey Pachuco!",
          "link": "https://www.youtube.com/watch?v=l4XHcZR0cjY",
          "start": 39
        }
      ]
    },
    {
      "title": "titanic",
      "url": [
        {
          "name": "Celine Dion - My Heart Will Go On",
          "link": "https://www.youtube.com/watch?v=3gK_2XdjOdY",
          "start": 15
        }
      ]
    },
    {
      "title": "top gun",
      "url": [
        {
          "name": "Harold Faltermeyer - Main Theme",
          "link": "https://www.youtube.com/watch?v=MVNQGUkRX_U",
          "start": 12
        }
      ]
    },
    {
      "title": "toy story",
      "url": [
        {
          "name": "You've got a friend in me",
          "link": "https://www.youtube.com/watch?v=XHFy3YWpRx8",
          "start": 0
        }
      ]
    },
    {
      "title": "Tron Legacy",
      "url": [
        {
          "name": "Daft Punk - Derezzed",
          "link": "https://www.youtube.com/watch?v=M4dUiBfMQVU",
          "start": 0
        }
      ]
    },
    {
      "title": "venom",
      "url": [
        {
          "name": "Eminem - Venom",
          "link": "https://www.youtube.com/watch?v=eL56OnENAjg",
          "start": 65
        }
      ]
    },
    {
      "title": "Wall-E",
      "url": [
        {
          "name": "Put On Your Sunday Clothes",
          "link": "https://www.youtube.com/watch?v=6sGYbCOsY58",
          "start": 10
        }
      ]
    },
    {
      "title": "world war z",
      "url": [
        {
          "name": "Main Theme",
          "link": "https://www.youtube.com/watch?v=tVvG3X1pcQ8",
          "start": 55
        }
      ]
    },
    {
      "title": "x men apocalypse",
      "url": [
        {
          "name": "Eurythmics - Sweet Dreams",
          "link": "https://www.youtube.com/watch?v=bvXXQxcq5-4",
          "start": 71
        }
      ]
    }
  ],
  "medium": [
    {
      "title": "2001 l'odyssee de l espace",
      "url": [
        {
          "name": "Strauss - Also sprach Zarathustra",
          "link": "https://www.youtube.com/watch?v=CwTWaN5ZMgQ",
          "start": 19
        }
      ]
    },
    {
      "title": "28 jours plus tard",
      "url": [
        {
          "name": "Eldritch - In the house, In a heartbeat",
          "link": "https://www.youtube.com/watch?v=FV5KvsNsiGA",
          "start": 0
        }
      ]
    },
    {
      "title": "8 mile",
      "url": [
        {
          "name": "Eminem - Lose Yourself",
          "link": "https://www.youtube.com/watch?v=mYxtBODmdZo",
          "start": 43
        }
      ]
    },
    {
      "title": "american pie",
      "url": [
        {
          "name": "Matt Nathanson - Laid",
          "link": "https://www.youtube.com/watch?v=NY36fPFJblA",
          "start": 11
        }
      ]
    },
    {
      "title": "American Psycho",
      "url": [
        {
          "name": "American Psycho - Main Theme by John Cale",
          "link": "https://www.youtube.com/watch?v=rTVwFlPI5go",
          "start": 70
        }
      ]
    },
    {
      "title": "Bumblebee",
      "url": [
        {
          "name": "Cybertron Falls",
          "link": "https://www.youtube.com/watch?v=IzRlAhO9b1k",
          "start": 40
        }
      ]
    },
    {
      "title": "camping paradis",
      "url": [
        {
          "name": "Fiesta Boom Boom",
          "link": "https://www.youtube.com/watch?v=qMe8oCYhpq8",
          "start": 0
        }
      ]
    },
    {
      "title": "charlie et la chocolaterie",
      "url": [
        {
          "name": "Main Theme",
          "link": "https://www.youtube.com/watch?v=kBrerYCKQ9M",
          "start": 35
        }
      ]
    },
    {
      "title": "daredevil",
      "url": [
        {
          "name": "John Paesano, Braden Kimball - Main Theme",
          "link": "https://www.youtube.com/watch?v=di7W_OYQOmI",
          "start": 0
        }
      ]
    },
    {
      "title": "deadpool",
      "url": [
        {
          "name": "DMX - X Gon' Give It To Ya",
          "link": "https://www.youtube.com/watch?v=ltbd6F280_k",
          "start": 70
        }
      ]
    },
    {
      "title": "demain nous appartient",
      "url": [
        {
          "name": "Lou - Demain",
          "link": "https://www.youtube.com/watch?v=CX6PKJXP_bA",
          "start": 55
        }
      ]
    },
    {
      "title": "divergent",
      "url": [
        {
          "name": "Woodkid - Run Boy Run",
          "link": "https://www.youtube.com/watch?v=iVRW4SJDNgA",
          "start": 57
        }
      ]
    },
    {
      "title": "edge of tomorrow",
      "url": [
        {
          "name": "Christophe Beck - Find Me When You Wake Up",
          "link": "https://www.youtube.com/watch?v=iOYoJSbDvFM",
          "start": 20
        }
      ]
    },
    {
      "title": "gravity",
      "url": [
        {
          "name": "Steven Price - Main Theme",
          "link": "https://www.youtube.com/watch?v=K3-YGVb6Tbw",
          "start": 115
        }
      ]
    },
    {
      "title": "il etait une fois l'ouest",
      "url": [
        {
          "name": "Ennio Morricone - The Man With The Harmonica",
          "link": "https://www.youtube.com/watch?v=rRexqa3J4CM",
          "start": 8
        }
      ]
    },
    {
      "title": "il faut sauver le soldat Ryan",
      "url": [
        {
          "name": "John Williams - Hymn To The Fallen",
          "link": "https://www.youtube.com/watch?v=vizCmXNkVhk",
          "start": 100
        }
      ]
    },
    {
      "title": "insaisisables",
      "url": [
        {
          "name": "Brian Tyler - Main Theme",
          "link": "https://www.youtube.com/watch?v=1oTx9COPrzg",
          "start": 45
        }
      ]
    },
    {
      "title": "intouchables",
      "url": [
        {
          "name": "Ludovico Einaudi - Una Mattina",
          "link": "https://www.youtube.com/watch?v=vhx8xxsjxHY",
          "start": 42
        }
      ]
    },
    {
      "title": "Kill Bill",
      "url": [
        {
          "name": "Battle Without Honor Or Humanity",
          "link": "https://www.youtube.com/watch?v=gw5vAd5icAg",
          "start": 18
        },
        {
          "name": "Kill Bill - Soundtrack - The Lonely Shepherd (Gheorghe Zamfir)",
          "link": "https://www.youtube.com/watch?v=nsgHyzwmbnQ",
          "start": 95
        }
      ]
    },
    {
      "title": "l amour est dans le pre",
      "url": [
        {
          "name": "Generique",
          "link": "https://www.youtube.com/watch?v=hjKk-cnM70A",
          "start": 0
        }
      ]
    },
    {
      "title": "l'exorciste",
      "url": [
        {
          "name": "Main Theme",
          "link": "https://www.youtube.com/watch?v=Hj83ugShbic",
          "start": 0
        }
      ]
    },
    {
      "title": "la cité de la peur",
      "url": [
        {
          "name": "La Carioca",
          "link": "https://www.youtube.com/watch?v=cfgfQoN-zHk",
          "start": 65
        }
      ]
    },
    {
      "title": "la famille addams",
      "url": [
        {
          "name": "Generique",
          "link": "https://www.youtube.com/watch?v=2sK9oxopj90",
          "start": 0
        }
      ]
    },
    {
      "title": "la soupe aux choux",
      "url": [
        {
          "name": "Raymond Lefevre - Generique de Fin",
          "link": "https://www.youtube.com/watch?v=MW0zPt0EhIQ",
          "start": 15
        }
      ]
    },
    {
      "title": "le bon, la brute et le truand",
      "url": [
        {
          "name": "Ennio Morricone - Main Theme",
          "link": "https://www.youtube.com/watch?v=9NMr0paWUCQ",
          "start": 2
        }
      ]
    },
    {
      "title": "le grand bleu",
      "url": [
        {
          "name": "Eric Serra - Main Theme",
          "link": "https://www.youtube.com/watch?v=ko23koYtOfc",
          "start": 12
        }
      ]
    },
    {
      "title": "le monde de narnia",
      "url": [
        {
          "name": "Harry Gregson-Williams - The Chronicles of Narnia",
          "link": "https://www.youtube.com/watch?v=enmkmc4oBig",
          "start": 18
        }
      ]
    },
    {
      "title": "le parrain",
      "url": [
        {
          "name": "Main Theme",
          "link": "https://www.youtube.com/watch?v=QK736KcqdK4",
          "start": 0
        }
      ]
    },
    {
      "title": "le pole express",
      "url": [
        {
          "name": "Main Theme",
          "link": "https://www.youtube.com/watch?v=YvVism1fOPA",
          "start": 10
        }
      ]
    },
    {
      "title": "le prince de bel air",
      "url": [
        {
          "name": "Generique",
          "link": "https://www.youtube.com/watch?v=OPVqumgVSlY",
          "start": 2
        }
      ]
    },
    {
      "title": "le roi lion",
      "url": [
        {
          "name": "Hakuna Matata",
          "link": "https://www.youtube.com/watch?v=wUbekNNtkLU",
          "start": 0
        }
      ]
    },
    {
      "title": "les aventures de Rabbi Jacob",
      "url": [
        {
          "name": "Vladimir Cosma - Generique",
          "link": "https://www.youtube.com/watch?v=TSBR8hzOfBM",
          "start": 0
        }
      ]
    },
    {
      "title": "les bronzés font du ski",
      "url": [
        {
          "name": "Main Theme",
          "link": "https://www.youtube.com/watch?v=mtqZM8FLWuc",
          "start": 6
        }
      ]
    },
    {
      "title": "les dents de la mer",
      "url": [
        {
          "name": "Main Theme",
          "link": "https://www.youtube.com/watch?v=g18907r3w7A",
          "start": 7
        }
      ]
    },
    {
      "title": "les indestructibles",
      "url": [
        {
          "name": "Michael Giacchino - The Glory Days",
          "link": "https://www.youtube.com/watch?v=3K1c6kcH70o",
          "start": 0
        }
      ]
    },
    {
      "title": "les visiteurs",
      "url": [
        {
          "name": "Generique de Fin - Eric Levi - Enae Volare",
          "link": "https://www.youtube.com/watch?v=LVJbmYwfuxY",
          "start": 2
        }
      ]
    },
    {
      "title": "madagascar",
      "url": [
        {
          "name": "Hans Zimmer - Ost",
          "link": "https://www.youtube.com/watch?v=vk1vngOQGI0",
          "start": 0
        }
      ]
    },
    {
      "title": "megamind",
      "url": [
        {
          "name": "Megamind's Evil Lair",
          "link": "https://www.youtube.com/watch?v=snAWdFn5KSg",
          "start": 0
        }
      ]
    },
    {
      "title": "monk",
      "url": [
        {
          "name": "Generique",
          "link": "https://www.youtube.com/watch?v=HbMQYk0QYM0",
          "start": 0
        }
      ]
    },
    {
      "title": "outer banks",
      "url": [
        {
          "name": "alt-J - Left Hand Free",
          "link": "https://www.youtube.com/watch?v=18yl4Bz_Fss",
          "start": 15
        }
      ]
    },
    {
      "title": "pulp fiction",
      "url": [
        {
          "name": "Dick Dale - Main Theme",
          "link": "https://www.youtube.com/watch?v=jtkcM7lerFM",
          "start": 0
        }
      ]
    },
    {
      "title": "retour vers le futur",
      "url": [
        {
          "name": "Alan Silvestri - Main Theme",
          "link": "https://www.youtube.com/watch?v=Lsi1KUfIkBE",
          "start": 40
        }
      ]
    },
    {
      "title": "Scott Pilgrim VS The World",
      "url": [
        {
          "name": "We Are Sex Bob-Omb",
          "link": "https://www.youtube.com/watch?v=05ghq2n25N8",
          "start": 4
        }
      ]
    },
    {
      "title": "sense 8",
      "url": [
        {
          "name": "Johnny & Tom Tykwer - WaterTower",
          "link": "https://www.youtube.com/watch?v=f9ZqGFiKwA8",
          "start": 18
        }
      ]
    },
    {
      "title": "Shutter Island",
      "url": [
        {
          "name": "On The Nature of Daylight",
          "link": "https://www.youtube.com/watch?v=QGtN3lpI2f4",
          "start": 120
        }
      ]
    },
    {
      "title": "Spiderman: Into the Spider-Verse",
      "url": [
        {
          "name": "Post Malone, Swae Lee - Sunflower",
          "link": "https://www.youtube.com/watch?v=ApXoWvfEYVU",
          "start": 27
        }
      ]
    },
    {
      "title": "taxi 4",
      "url": [
        {
          "name": "The Black Eyed Peas - Pump It",
          "link": "https://www.youtube.com/watch?v=172u1cuqWj0",
          "start": 43
        }
      ]
    },
    {
      "title": "the imitation game",
      "url": [
        {
          "name": "Alexandre Desplat - Main Theme",
          "link": "https://www.youtube.com/watch?v=tyezUnJnYYQ",
          "start": 0
        }
      ]
    },
    {
      "title": "The Lego Movie",
      "url": [
        {
          "name": "Everything is Awesome",
          "link": "https://www.youtube.com/watch?v=StTqXEQ2l-Y",
          "start": 5
        }
      ]
    },
    {
      "title": "transformers",
      "url": [
        {
          "name": "Steve Jablonsky - Arrival to Earth",
          "link": "https://www.youtube.com/watch?v=SX2NKEzcQZ4",
          "start": 45
        }
      ]
    },
    {
      "title": "very bad trip",
      "url": [
        {
          "name": "Baha Men - Who Let The Dogs Out",
          "link": "https://www.youtube.com/watch?v=tpcjXDyQO7s",
          "start": 18
        }
      ]
    }
  ],
  "hard": [
    {
      "title": "28 semaines plus tard",
      "url": [
        {
          "name": "Welcome to Britain",
          "link": "https://www.youtube.com/watch?v=2aPWOn0D_PI",
          "start": 0
        }
      ]
    },
    {
      "title": "alerte a malibu",
      "url": [
        {
          "name": "Opening",
          "link": "https://www.youtube.com/watch?v=7iOTtCHR1TQ",
          "start": 9
        }
      ]
    },
    {
      "title": "alice au pays des merveilles",
      "url": [
        {
          "name": "Alice's Theme",
          "link": "https://www.youtube.com/watch?v=JJLLrooLees",
          "start": 38
        }
      ]
    },
    {
      "title": "asterix et cleopatre",
      "url": [
        {
          "name": "Le pouding a l'arsenic",
          "link": "https://www.youtube.com/watch?v=c06uNMoeUbc",
          "start": 43
        }
      ]
    },
    {
      "title": "avatar",
      "url": [
        {
          "name": "James Roy Horner - Main Theme",
          "link": "https://www.youtube.com/watch?v=6wdS0HXvZ-0",
          "start": 50
        }
      ]
    },
    {
      "title": "bienvenue chez les chtis",
      "url": [
        {
          "name": "Generique",
          "link": "https://www.youtube.com/watch?v=NtZ7F85V43g",
          "start": 0
        }
      ]
    },
    {
      "title": "Bionicle: Mask of Light",
      "url": [
        {
          "name": "Legend of the Bionicle",
          "link": "https://www.youtube.com/watch?v=eQigR6EmyvI",
          "start": 110
        }
      ]
    },
    {
      "title": "Blade Runner",
      "url": [
        {
          "name": "Main Title Music",
          "link": "https://www.youtube.com/watch?v=EV95Yu6gZSY",
          "start": 80
        }
      ]
    },
    {
      "title": "drive",
      "url": [
        {
          "name": "Kavinsky - Nightcall",
          "link": "https://www.youtube.com/watch?v=OHDqV1BEiqw",
          "start": 10
        }
      ]
    },
    {
      "title": "fatal",
      "url": [
        {
          "name": "Crhis Prolls, Fatal Bazooka - Superclash",
          "link": "https://www.youtube.com/watch?v=xlsICUFkycY",
          "start": 0
        }
      ]
    },
    {
      "title": "harry potter a l ecole des sorciers",
      "url": [
        {
          "name": "John Williams - Prologue",
          "link": "https://www.youtube.com/watch?v=U3D3VYVNdek",
          "start": 75
        }
      ]
    },
    {
      "title": "hawai five 0",
      "url": [
        {
          "name": "Morton Stevens - Main Theme",
          "link": "https://www.youtube.com/watch?v=bHxqcwRwt80",
          "start": 34
        }
      ]
    },
    {
      "title": "iron fist",
      "url": [
        {
          "name": "Trevor Morris - Generique",
          "link": "https://www.youtube.com/watch?v=vo-gqPVJkyk",
          "start": 45
        }
      ]
    },
    {
      "title": "je suis une légende",
      "url": [
        {
          "name": "Bob Marley - Three Little Birds",
          "link": "https://www.youtube.com/watch?v=auE1Blpcrts",
          "start": 15
        }
      ]
    },
    {
      "title": "la 7 eme compagnie",
      "url": [
        {
          "name": "Generique de Fin",
          "link": "https://www.youtube.com/watch?v=e5wt71pRA_Y",
          "start": 0
        }
      ]
    },
    {
      "title": "la nuit au musee",
      "url": [
        {
          "name": "Main Theme - Alan Silvestri",
          "link": "https://www.youtube.com/watch?v=Gj2F8qy3CIg",
          "start": 30
        }
      ]
    },
    {
      "title": "la vérité si je mens",
      "url": [
        {
          "name": "Generique de Fin - Mike Pela - Alabina",
          "link": "https://www.youtube.com/watch?v=4Wpj8upiov8",
          "start": 21
        }
      ]
    },
    {
      "title": "le labyrinthe",
      "url": [
        {
          "name": "Main Theme",
          "link": "https://www.youtube.com/watch?v=dI25KCY9-Gg",
          "start": 55
        }
      ]
    },
    {
      "title": "le seigneur des anneaux",
      "url": [
        {
          "name": "Howard Shore - The Bridge of Khazad Dum",
          "link": "https://www.youtube.com/watch?v=PjJa9ZeoY8s",
          "start": 0
        }
      ]
    },
    {
      "title": "oss 117 le caire nid d espion",
      "url": [
        {
          "name": "Metropole Orkest - Main Theme",
          "link": "https://www.youtube.com/watch?v=iolT-VbLimk",
          "start": 0
        }
      ]
    },
    {
      "title": "percy jackson le voleur de foudre",
      "url": [
        {
          "name": "Cristhophe Beck - Interlude",
          "link": "https://www.youtube.com/watch?v=fPcEGGekuJk",
          "start": 70
        }
      ]
    },
    {
      "title": "person of interest",
      "url": [
        {
          "name": "Generique",
          "link": "https://www.youtube.com/watch?v=fPcEGGekuJk",
          "start": 0
        }
      ]
    },
    {
      "title": "Resident Evil",
      "url": [
        {
          "name": "Prologue & Main Title",
          "link": "https://www.youtube.com/watch?v=jA964ue-aps",
          "start": 58
        },
        {
          "name": "Special Squad Enter The Mansion",
          "link": "https://www.youtube.com/watch?v=kKMm1DdnTSM",
          "start": 52
        }
      ]
    },
    {
      "title": "suicid squad",
      "url": [
        {
          "name": "21 pilots - Heathens",
          "link": "https://www.youtube.com/watch?v=3qz1sBIBi2g",
          "start": 20
        }
      ]
    }
  ]
}
