{
  "easy": [
    {
      "title": "akame ga kill",
      "url": [
        {
          "name": "Opening 2 - Rika Mayama - Liar MAsk",
          "link": "https://www.youtube.com/watch?v=mAzFWd5WqOg",
          "start": 0
        }
      ]
    },
    {
      "title": "assasination classroom",
      "url": [
        {
          "name": "Opening 1",
          "link": "https://www.youtube.com/watch?v=ElPIB4tV70Q",
          "start": 0
        }
      ]
    },
    {
      "title": "Avatar The Last Airbender",
      "url": [
        {
          "name": "Opening",
          "link": "https://www.youtube.com/watch?v=d1EnW4kn1kg",
          "start": 0
        },
        {
          "name": "Agni Kai",
          "link": "https://www.youtube.com/watch?v=TVxuAJinu3I",
          "start": 15
        },
        {
          "name": "Tsungi Horn",
          "link": "https://www.youtube.com/watch?v=R7wBmk5uUhU",
          "start": 0
        },
        {
          "name": "Interlude",
          "link": "https://www.youtube.com/watch?v=xvcGHYMV0y8",
          "start": 12
        }
      ]
    },
    {
      "title": "batman TV series",
      "url": [
        {
          "name": "The Batman TV Series - Extended Theme Song",
          "link": "https://www.youtube.com/watch?v=rIJaN5SBHEw",
          "start": 0
        }
      ]
    },
    {
      "title": "black clover",
      "url": [
        {
          "name": "Opening 3 - Vickeblanka - BLACK ROVER",
          "link": "https://www.youtube.com/watch?v=dUiDZJMPh-s",
          "start": 42
        },
        {
          "name": "Opening 10 - Vickeblanka - Black Catcher",
          "link": "https://www.youtube.com/watch?v=xj9aaqzKBwM",
          "start": 49
        },
        {
          "name": "Opening 1 - Kankaku Piero - Haruka Mirai",
          "link": "https://www.youtube.com/watch?v=_6KZI74zKfE",
          "start": 49
        }
      ]
    },
    {
      "title": "bleach",
      "url": [
        {
          "name": "Arrancar Theme - Clavar La Espada",
          "link": "https://www.youtube.com/watch?v=suwfJMiXauU",
          "start": 0
        },
        {
          "name": "Opening 6 - Aqua Timez - Alones",
          "link": "https://www.youtube.com/watch?v=RwsZ42wU9TU",
          "start": 0
        },
        {
          "name": "Opening 9 - Aqua Timez - Velonica",
          "link": "https://www.youtube.com/watch?v=zeN8dKhM-0g",
          "start": 53
        }
      ]
    },
    {
      "title": "bob l'eponge",
      "url": [
        {
          "name": "Generique",
          "link": "https://www.youtube.com/watch?v=0wGq5gpkBC0",
          "start": 0
        }
      ]
    },
    {
      "title": "boruto",
      "url": [
        {
          "name": "Opening 1 - KANA-BOON - Baton Road",
          "link": "https://www.youtube.com/watch?v=48wCQXl83-s",
          "start": 50
        }
      ]
    },
    {
      "title": "Chainsaw Man",
      "url": [
        {
          "name": "Opening 1 - Kick Back",
          "link": "https://www.youtube.com/watch?v=dFlDRhvM4L0",
          "start": 50
        }
      ]
    },
    {
      "title": "code geass",
      "url": [
        {
          "name": "Opening 1",
          "link": "https://www.youtube.com/watch?v=G8CFuZ9MseQ",
          "start": 0
        }
      ]
    },
    {
      "title": "cowboy bebop",
      "url": [
        {
          "name": "Opening",
          "link": "https://www.youtube.com/watch?v=NRI_8PUXx2A",
          "start": 0
        }
      ]
    },
    {
      "title": "danganronpa the animation",
      "url": [
        {
          "name": "Opening",
          "link": "https://www.youtube.com/watch?v=Avr-Iu5vWsM",
          "start": 0
        }
      ]
    },
    {
      "title": "death note",
      "url": [
        {
          "name": "Opening 1 - The WORLD",
          "link": "https://www.youtube.com/watch?v=KdGOV8FX6F4",
          "start": 0
        },
        {
          "name": "Opening 2",
          "link": "https://www.youtube.com/watch?v=mX9BwDfXzNg",
          "start": 0
        },
        {
          "name": "L Theme",
          "link": "https://www.youtube.com/watch?v=qR6dzwQahOM",
          "start": 0
        }
      ]
    },
    {
      "title": "demon slayer",
      "url": [
        {
          "name": "Opening - LiSA - Gurenge",
          "link": "https://www.youtube.com/watch?v=YkJvHe3KK2c",
          "start": 0
        }
      ]
    },
    {
      "title": "dr stone",
      "url": [
        {
          "name": "Opening 1",
          "link": "https://www.youtube.com/watch?v=tF4faMbs5oQ",
          "start": 0
        }
      ]
    },
    {
      "title": "dragon ball z",
      "url": [
        {
          "name": "Opening 1 - Hironobu Kageyama - Cha-La Head-Cha-La",
          "link": "https://www.youtube.com/watch?v=0liOFNYuNMc",
          "start": 12
        }
      ]
    },
    {
      "title": "family guy",
      "url": [
        {
          "name": "Generique",
          "link": "https://www.youtube.com/watch?v=eeNHV2C5m3w",
          "start": 0
        }
      ]
    },
    {
      "title": "fate",
      "url": [
        {
          "name": "Stay Night Opening 1",
          "link": "https://www.youtube.com/watch?v=Qy7Q77ZD_ME",
          "start": 0
        }
      ]
    },
    {
      "title": "fire force",
      "url": [
        {
          "name": "Opening 1 - Mrs.GREEN APPLE - Inferno",
          "link": "https://www.youtube.com/watch?v=JBqxVX_LXvk",
          "start": 36
        }
      ]
    },
    {
      "title": "foot 2 rue",
      "url": [
        {
          "name": "Generique",
          "link": "https://www.youtube.com/watch?v=OalJZhbmO8E",
          "start": 4
        }
      ]
    },
    {
      "title": "fullmetal alchemist",
      "url": [
        {
          "name": "Opening 1",
          "link": "https://www.youtube.com/watch?v=UHKSiBjrmx4",
          "start": 4
        }
      ]
    },
    {
      "title": "fullmetal alchemist: brotherhood",
      "url": [
        {
          "name": "Opening 5",
          "link": "https://www.youtube.com/watch?v=xPagMVxv2vM",
          "start": 50
        },
        {
          "name": "Opening 1 - Yui - Again",
          "link": "https://www.youtube.com/watch?v=J6YdEvsTQHg",
          "start": 0
        }
      ]
    },
    {
      "title": "heidi",
      "url": [
        {
          "name": "Generique",
          "link": "https://www.youtube.com/watch?v=FUb9Pg7KmEM",
          "start": 5
        }
      ]
    },
    {
      "title": "hunter x hunter",
      "url": [
        {
          "name": "Opening 1 - Masatoshi Ono - Departure!",
          "link": "https://www.youtube.com/watch?v=3wQiyOmAUOA",
          "start": 0
        },
        {
          "name": "Hisoka Theme",
          "link": "https://www.youtube.com/watch?v=900AzBnnhjU",
          "start": 0
        }
      ]
    },
    {
      "title": "initial d",
      "url": [
        {
          "name": "Opening - Super Eurobeat - Deja vu",
          "link": "https://www.youtube.com/watch?v=dv13gl0a-FA",
          "start": 49
        },
        {
          "name": "Running in the 90s",
          "link": "https://www.youtube.com/watch?v=XCiDuy4mrWU",
          "start": 21
        }
      ]
    },
    {
      "title": "jojo's bizarre adventure",
      "url": [
        {
          "name": "Giorno's Theme - Il vento d'oro",
          "link": "https://www.youtube.com/watch?v=ZdcdMzJPJS0",
          "start": 0
        },
        {
          "name": "Pillar Men Theme - Awaken",
          "link": "https://www.youtube.com/watch?v=lRrOLTHu-ew",
          "start": 0
        },
        {
          "name": "Gang Torture Dance - Canzoni Preferite",
          "link": "https://www.youtube.com/watch?v=AQx_KMoCgJU",
          "start": 0
        },
        {
          "name": "Opening 2 - Bloody Stream",
          "link": "https://www.youtube.com/watch?v=hmpJqJLsR48",
          "start": 52
        },
        {
          "name": "Bruno's Theme - Furious Fight",
          "link": "https://www.youtube.com/watch?v=ILy6UWcWBtM",
          "start": 40
        },
        {
          "name": "Stone Ocean Opening",
          "link": "https://www.youtube.com/watch?v=mgxDyrEnnoE",
          "start": 16
        }
      ]
    },
    {
      "title": "jujutsu kaisen",
      "url": [
        {
          "name": "Opening 1 - Eve - Kaikan Kitan",
          "link": "https://www.youtube.com/watch?v=GwaRztMaoY0",
          "start": 42
        }
      ]
    },
    {
      "title": "les ratz",
      "url": [
        {
          "name": "Generique",
          "link": "https://www.youtube.com/watch?v=sBfimllcI7Q",
          "start": 0
        }
      ]
    },
    {
      "title": "les simpsons",
      "url": [
        {
          "name": "Generique",
          "link": "https://www.youtube.com/watch?v=QTm8Vqra7bE",
          "start": 1
        }
      ]
    },
    {
      "title": "les supers nanas",
      "url": [
        {
          "name": "Generique",
          "link": "https://www.youtube.com/watch?v=9SfjOlHd9ZE",
          "start": 30
        }
      ]
    },
    {
      "title": "mashle",
      "url": [
        {
          "name": "Opening",
          "link": "https://www.youtube.com/watch?v=9rVKos-oGnQ",
          "start": 49
        }
      ]
    },
    {
      "title": "maya l'abeille",
      "url": [
        {
          "name": "Generique",
          "link": "https://www.youtube.com/watch?v=l5igWxSPDaI",
          "start": 6
        }
      ]
    },
    {
      "title": "my hero academia",
      "url": [
        {
          "name": "Saison 3 Opening 1 - UVERworld - ODD FUTURE",
          "link": "https://www.youtube.com/watch?v=v1YojYU5nPQ",
          "start": 0
        },
        {
          "name": "Opening 2 - Kenshi Yonezu - Peace Sign",
          "link": "https://www.youtube.com/watch?v=oTNYCBWO42c",
          "start": 58
        },
        {
          "name": "Ost - You Say Run",
          "link": "https://www.youtube.com/watch?v=lsHCzboWK0U",
          "start": 0
        },
        {
          "name": "Ost - Jet Set Run",
          "link": "https://www.youtube.com/watch?v=lsHCzboWK0U",
          "start": 295
        },
        {
          "name": "Main Theme",
          "link": "https://www.youtube.com/watch?v=4jIXcSxBP7U",
          "start": 0
        },
        {
          "name": "Endeavor Theme - Just Another Hero",
          "link": "https://www.youtube.com/watch?v=ehCT9UO9Je8",
          "start": 0
        }
      ]
    },
    {
      "title": "nanatsu no taizai",
      "url": [
        {
          "name": "Ost - Perfect Time",
          "link": "https://www.youtube.com/watch?v=HxlysqrFjHo",
          "start": 80
        },
        {
          "name": "Ost - 7tsuno:the1",
          "link": "https://www.youtube.com/watch?v=bf9lLK9WFNY",
          "start": 70
        }
      ]
    },
    {
      "title": "naruto",
      "url": [
        {
          "name": "Opening 3 - Little by little - Kanashimi Wo Yasashisa Ni",
          "link": "https://www.youtube.com/watch?v=XwJEFzsqNoY",
          "start": 0
        },
        {
          "name": "Ost - Sadness And Sorrow",
          "link": "https://www.youtube.com/watch?v=e6XlfB-nIC4",
          "start": 0
        }
      ]
    },
    {
      "title": "naruto shippuden",
      "url": [
        {
          "name": "Opening 6 - Flow - Sign",
          "link": "https://www.youtube.com/watch?v=SavhHnWla6c",
          "start": 0
        },
        {
          "name": "Opening 2 - LONG SHOT PARTY - Distance",
          "link": "https://www.youtube.com/watch?v=mFLZ-I2r3Mc",
          "start": 0
        }
      ]
    },
    {
      "title": "neon genesis evangelion",
      "url": [
        {
          "name": "Opening 1",
          "link": "https://www.youtube.com/watch?v=k8ozVkIkr-g",
          "start": 0
        }
      ]
    },
    {
      "title": "no game no life",
      "url": [
        {
          "name": "Opening - Konomi Suzuki - This Game",
          "link": "https://www.youtube.com/watch?v=6CBp4qylX6I",
          "start": 40
        }
      ]
    },
    {
      "title": "one piece",
      "url": [
        {
          "name": "Ost - Overtaken",
          "link": "https://www.youtube.com/watch?v=daFi4MScfl8",
          "start": 0
        },
        {
          "name": "Opening 13 - The ROOTLESS - One day",
          "link": "https://www.youtube.com/watch?v=hJgJTTIbMDI",
          "start": 63
        },
        {
          "name": "Opening 1 - We ARE",
          "link": "https://www.youtube.com/watch?v=IHhNTt3oxtY",
          "start": 80
        }
      ]
    },
    {
      "title": "one punch man",
      "url": [
        {
          "name": "Opening 1 - JAM Project - The Hero!!",
          "link": "https://www.youtube.com/watch?v=RkmF350l8nk",
          "start": 33
        }
      ]
    },
    {
      "title": "overlord",
      "url": [
        {
          "name": "Opening 1 - OxT - Clattanoia",
          "link": "https://www.youtube.com/watch?v=KOWcj7XKnfQ",
          "start": 0
        }
      ]
    },
    {
      "title": "parasyte",
      "url": [
        {
          "name": "Opening - Fear and Loathing in Las Vegas - Acceleration",
          "link": "https://www.youtube.com/watch?v=Rm8UjBAS3cs",
          "start": 0
        },
        {
          "name": "Ost - Ken Arai - Next To You",
          "link": "https://www.youtube.com/watch?v=UboPPTZLFas",
          "start": 0
        }
      ]
    },
    {
      "title": "pokemon",
      "url": [
        {
          "name": "Opening Saison 1",
          "link": "https://www.youtube.com/watch?v=jVm1NbrXaXc",
          "start": 2
        },
        {
          "name": "Opening 3",
          "link": "https://www.youtube.com/watch?v=fxKtBMJnn2I",
          "start": 17
        }
      ]
    },
    {
      "title": "re:zero",
      "url": [
        {
          "name": "Opening 1 - Konomi Suzuki - Redo",
          "link": "https://www.youtube.com/watch?v=0Vwwr3VGsYg",
          "start": 0
        }
      ]
    },
    {
      "title": "samurai champloo",
      "url": [
        {
          "name": "Opening - Nujabes - Battlecry ft. Shing02",
          "link": "https://www.youtube.com/watch?v=Eq6EYcpWB_c",
          "start": 0
        }
      ]
    },
    {
      "title": "scooby doo",
      "url": [
        {
          "name": "Generique",
          "link": "https://www.youtube.com/watch?v=tzJVaEL-Mmg",
          "start": 2
        }
      ]
    },
    {
      "title": "shingeki no kyojin",
      "url": [
        {
          "name": "The Owl Theme",
          "link": "https://www.youtube.com/watch?v=SZOr9K01Eno",
          "start": 95
        },
        {
          "name": "Saison 2 Opening - Linked Horizon - Shinzou Wo Sasageyou",
          "link": "https://www.youtube.com/watch?v=YFeHDZsIrm4",
          "start": 124
        },
        {
          "name": "Opening 1 - Guren no yumiya",
          "link": "https://www.youtube.com/watch?v=CbvQKBaDUWI",
          "start": 0
        }
      ]
    },
    {
      "title": "shokugeki no soma",
      "url": [
        {
          "name": "Opening 2 - Misokkasu - Rising Rainbow",
          "link": "https://www.youtube.com/watch?v=vm6R8MgqR9A",
          "start": 0
        }
      ]
    },
    {
      "title": "soul eater",
      "url": [
        {
          "name": "Opening 1 - T.M. Revolution - Resonance",
          "link": "https://www.youtube.com/watch?v=zzJ8U8OtEsE",
          "start": 15
        }
      ]
    },
    {
      "title": "south park",
      "url": [
        {
          "name": "Generique",
          "link": "https://www.youtube.com/watch?v=48tVRaac7WA",
          "start": 6
        }
      ]
    },
    {
      "title": "star wars the clone wars",
      "url": [
        {
          "name": "Star Wars The Clone Wars - Star Wars Main Title & A Galaxy Divided",
          "link": "https://www.youtube.com/watch?v=i5chHfK6sCc",
          "start": 17
        }
      ]
    },
    {
      "title": "sword art online",
      "url": [
        {
          "name": "Opening 1 - Lisa - Crossing Field",
          "link": "https://www.youtube.com/watch?v=1oOBjyOKu2o",
          "start": 43
        },
        {
          "name": "Ost - Swordland",
          "link": "https://www.youtube.com/watch?v=jUuknk81n2w",
          "start": 50
        },
        {
          "name": "Opening 3 - Aoi Eir - Ignite",
          "link": "https://www.youtube.com/watch?v=_9rgFyn6FMM",
          "start": 0
        }
      ]
    },
    {
      "title": "the promised neverland",
      "url": [
        {
          "name": "Opening 1 - Growth - one day...",
          "link": "https://www.youtube.com/watch?v=nQQ1IYESt4I",
          "start": 62
        }
      ]
    },
    {
      "title": "tokyo ghoul",
      "url": [
        {
          "name": "Opening 1 - TK - Unravel",
          "link": "https://www.youtube.com/watch?v=uMeR2W19wT0",
          "start": 0
        }
      ]
    },
    {
      "title": "tower of god",
      "url": [
        {
          "name": "Opening 1 - Stray kids - TOP",
          "link": "https://www.youtube.com/watch?v=apII5VFTce0",
          "start": 0
        }
      ]
    },
    {
      "title": "Transformers G1",
      "url": [
        {
          "name": "Season 1 Intro",
          "link": "https://www.youtube.com/watch?v=Ae-Pl-Q34ng",
          "start": 0
        },
        {
          "name": "Season 1 Outro",
          "link": "https://www.youtube.com/watch?v=Ae-Pl-Q34ng",
          "start": 33
        },
        {
          "name": "Pour un monde meilleur",
          "link": "https://www.youtube.com/watch?v=M9PN_66kVZ0",
          "start": 0
        },
        {
          "name": "Transformoule",
          "link": "https://www.youtube.com/watch?v=miHqflNbpbE",
          "start": 0
        }
      ]
    },
    {
      "title": "winx",
      "url": [
        {
          "name": "Generique",
          "link": "https://www.youtube.com/watch?v=FkZCRvNb-Yo",
          "start": 4
        }
      ]
    },
    {
      "title": "your lie in april",
      "url": [
        {
          "name": "Opening 1",
          "link": "https://www.youtube.com/watch?v=c5rgwNvlrmo",
          "start": 46
        }
      ]
    },
    {
      "title": "your name",
      "url": [
        {
          "name": "Main Theme",
          "link": "https://www.youtube.com/watch?v=a2GujJZfXpg",
          "start": 1
        }
      ]
    },
    {
      "title": "yuri on ice",
      "url": [
        {
          "name": "Opening 1 - Dean Fujioka - History Maker",
          "link": "https://www.youtube.com/watch?v=ORDXWrL5EuQ",
          "start": 0
        }
      ]
    }
  ],
  "medium": [
    {
      "title": "akame ga kill",
      "url": [
        {
          "name": "Opening 1 - Sora Amamiya - Skyreach",
          "link": "https://www.youtube.com/watch?v=wVFWBoKP-lQ",
          "start": 47
        }
      ]
    },
    {
      "title": "albator",
      "url": [
        {
          "name": "Eric Charden - Generique",
          "link": "https://www.youtube.com/watch?v=AMIrFNHAGyE",
          "start": 0
        }
      ]
    },
    {
      "title": "american dad",
      "url": [
        {
          "name": "Intro",
          "link": "https://www.youtube.com/watch?v=_EDS7pt4kno",
          "start": 0
        }
      ]
    },
    {
      "title": "angel beats",
      "url": [
        {
          "name": "Opening 1 - Lia - My Soul, Your Beats!",
          "link": "https://www.youtube.com/watch?v=Eksw56g-WBY",
          "start": 0
        }
      ]
    },
    {
      "title": "ao no exorcist",
      "url": [
        {
          "name": "Opening 1",
          "link": "https://www.youtube.com/watch?v=6hQa7J-kEn0",
          "start": 10
        }
      ]
    },
    {
      "title": "belle et sebastien",
      "url": [
        {
          "name": "Generique",
          "link": "https://www.youtube.com/watch?v=d6r_EHuv22I",
          "start": 2
        }
      ]
    },
    {
      "title": "ben 10",
      "url": [
        {
          "name": "Generique",
          "link": "https://www.youtube.com/watch?v=C4AF8Q_TD4w",
          "start": 0
        }
      ]
    },
    {
      "title": "berserk",
      "url": [
        {
          "name": "Berserk 2016 OST - Blood and Guts and Guts and Blood",
          "link": "https://www.youtube.com/watch?v=aFDsLUO6XMY",
          "start": 28
        },
        {
          "name": "My Brother",
          "link": "https://www.youtube.com/watch?v=lBdnti4_UUg",
          "start": 31
        }
      ]
    },
    {
      "title": "bleach",
      "url": [
        {
          "name": "Ichigo's Theme - Number One",
          "link": "https://www.youtube.com/watch?v=1lsn2tT5yTc",
          "start": 80
        },
        {
          "name": "Ost - Nothing can be explained",
          "link": "https://www.youtube.com/watch?v=X34igEEtrac",
          "start": 0
        },
        {
          "name": "Opening 13 - Ranbu no Melody",
          "link": "https://www.youtube.com/watch?v=5emM3JGI5JA",
          "start": 41
        }
      ]
    },
    {
      "title": "Bojack Horseman",
      "url": [
        {
          "name": "BoJack's Theme",
          "link": "https://www.youtube.com/watch?v=UkhHY7U3LwU",
          "start": 0
        }
      ]
    },
    {
      "title": "bonne nuit les petits",
      "url": [
        {
          "name": "Generique",
          "link": "https://www.youtube.com/watch?v=4UNkj-AsZRs",
          "start": 0
        }
      ]
    },
    {
      "title": "btooom",
      "url": [
        {
          "name": "Opening 1",
          "link": "https://www.youtube.com/watch?v=5GjbLOe_cgw",
          "start": 0
        }
      ]
    },
    {
      "title": "capitaine flam",
      "url": [
        {
          "name": "Richard Simon - Generique",
          "link": "https://www.youtube.com/watch?v=w5VGepGak-c",
          "start": 0
        }
      ]
    },
    {
      "title": "charlotte",
      "url": [
        {
          "name": "Opening 1 - Lia - Bravely You",
          "link": "https://www.youtube.com/watch?v=WhRsyIGN-cA",
          "start": 0
        }
      ]
    },
    {
      "title": "Claymore",
      "url": [
        {
          "name": "Claymore Opening",
          "link": "https://www.youtube.com/watch?v=vZFXrjL6fxA",
          "start": 0
        }
      ]
    },
    {
      "title": "code geass r2",
      "url": [
        {
          "name": "Opening 2 - Flow - World's End",
          "link": "https://www.youtube.com/watch?v=aoFr6V1tY8I",
          "start": 0
        }
      ]
    },
    {
      "title": "corneil et bernie",
      "url": [
        {
          "name": "Generique",
          "link": "https://www.youtube.com/watch?v=O-TO3erDQmY",
          "start": 2
        }
      ]
    },
    {
      "title": "cyberpunk edgerunner",
      "url": [
        {
          "name": "I Really Wanna Stay At Your House",
          "link": "https://www.youtube.com/watch?v=h4VJGNNSQnw",
          "start": 0
        }
      ]
    },
    {
      "title": "death note",
      "url": [
        {
          "name": "Ost - Hideki Taniuchi, Yoshihisa Hirano - Kyrie",
          "link": "https://www.youtube.com/watch?v=8FzPkYJjFTs",
          "start": 0
        },
        {
          "name": "Ost - Low Of Solipsism",
          "link": "https://www.youtube.com/watch?v=81D8CCguW4g",
          "start": 30
        }
      ]
    },
    {
      "title": "denver",
      "url": [
        {
          "name": "Generique",
          "link": "https://www.youtube.com/watch?v=nOquVza_H2k",
          "start": 12
        }
      ]
    },
    {
      "title": "digimon",
      "url": [
        {
          "name": "Generique",
          "link": "https://www.youtube.com/watch?v=a5c_YLOBxEs",
          "start": 20
        }
      ]
    },
    {
      "title": "dinosaur king",
      "url": [
        {
          "name": "Generique",
          "link": "https://www.youtube.com/watch?v=z_s81YG7CEM",
          "start": 7
        }
      ]
    },
    {
      "title": "dora l'exploratrice",
      "url": [
        {
          "name": "Generique",
          "link": "https://www.youtube.com/watch?v=Zt7Lj67ux8g",
          "start": 0
        }
      ]
    },
    {
      "title": "dragon ball",
      "url": [
        {
          "name": "Opening 1",
          "link": "https://www.youtube.com/watch?v=FJqGirLjQn4",
          "start": 0
        },
        {
          "name": "Ariane - Generique",
          "link": "https://www.youtube.com/watch?v=wa4paQmsr-E",
          "start": 0
        }
      ]
    },
    {
      "title": "dragon ball kai",
      "url": [
        {
          "name": "Opening 1 - Takayoshi Tanimoto - Dragon Soul",
          "link": "https://www.youtube.com/watch?v=odhuGelEH3g",
          "start": 4
        }
      ]
    },
    {
      "title": "dragon ball super",
      "url": [
        {
          "name": "Opening 1 - Kazuya Yoshii - Chozetsu Dynamic",
          "link": "https://www.youtube.com/watch?v=O1A8xI6__bY",
          "start": 0
        },
        {
          "name": "Opening 2 - Kiyoshi Hikawa - Genkai Toppa x Survivor",
          "link": "https://www.youtube.com/watch?v=4apvo3w97qY",
          "start": 56
        }
      ]
    },
    {
      "title": "durarara!!x2",
      "url": [
        {
          "name": "Opening 1 - Flow - Steppin'out",
          "link": "https://www.youtube.com/watch?v=5r0jdlfqeE4",
          "start": 74
        }
      ]
    },
    {
      "title": "erased",
      "url": [
        {
          "name": "Opening 1 - Asian Kung-fu - Re:Re:",
          "link": "https://www.youtube.com/watch?v=fodAJ-1dN3I",
          "start": 0
        }
      ]
    },
    {
      "title": "fairy tail",
      "url": [
        {
          "name": "Opening 3 - Funkist - ft.",
          "link": "https://www.youtube.com/watch?v=T60pzAKu60Q",
          "start": 0
        },
        {
          "name": "Natsu Theme - Dragon Force",
          "link": "https://www.youtube.com/watch?v=7q7j0-LkdNE",
          "start": 25
        }
      ]
    },
    {
      "title": "fate",
      "url": [
        {
          "name": "Zero Opening 1 - Lisa - Oath Sign",
          "link": "https://www.youtube.com/watch?v=aK2-jBqwEWU",
          "start": 49
        }
      ]
    },
    {
      "title": "franklin",
      "url": [
        {
          "name": "Generique",
          "link": "https://www.youtube.com/watch?v=q7LKEW8r8A4",
          "start": 0
        }
      ]
    },
    {
      "title": "free",
      "url": [
        {
          "name": "Opening",
          "link": "https://www.youtube.com/watch?v=ojPKvzQdo7k",
          "start": 0
        }
      ]
    },
    {
      "title": "fullmetal alchemist: brotherhood",
      "url": [
        {
          "name": "Opening 2",
          "link": "https://www.youtube.com/watch?v=yisFPu96lIw",
          "start": 54
        },
        {
          "name": "Opening 4 - Period",
          "link": "https://www.youtube.com/watch?v=9vx69Pe7Ncs",
          "start": 122
        }
      ]
    },
    {
      "title": "gintama",
      "url": [
        {
          "name": "Opening 13",
          "link": "https://www.youtube.com/watch?v=iXpGVuaQwXo",
          "start": 38
        },
        {
          "name": "Opening 17 - DOES - Know Know Know",
          "link": "https://www.youtube.com/watch?v=-YgeQvUfPJk",
          "start": 50
        }
      ]
    },
    {
      "title": "goldorak",
      "url": [
        {
          "name": "Goldorak Générique version longue 1",
          "link": "https://www.youtube.com/watch?v=NfO-4Xgapq4",
          "start": 0
        }
      ]
    },
    {
      "title": "gto",
      "url": [
        {
          "name": "Opening 2 - Porno Graffitti - Hitori no Yoru",
          "link": "https://www.youtube.com/watch?v=xpAg0spgFJA",
          "start": 49
        },
        {
          "name": "Opening 1 - Driver's High",
          "link": "https://www.youtube.com/watch?v=2JGl6UzfPkE",
          "start": 4
        }
      ]
    },
    {
      "title": "haikyuu",
      "url": [
        {
          "name": "Ost - Chimu no Jiriki",
          "link": "https://www.youtube.com/watch?v=sVRkrUTWANk",
          "start": 30
        },
        {
          "name": "Opening 1 - Imagination",
          "link": "https://www.youtube.com/watch?v=QUJPa9nNlFU",
          "start": 29
        }
      ]
    },
    {
      "title": "hamtaro",
      "url": [
        {
          "name": "Generique",
          "link": "https://www.youtube.com/watch?v=t5rHzHDwnBg",
          "start": 0
        }
      ]
    },
    {
      "title": "Hello Kitty",
      "url": [
        {
          "name": "Opening Theme Song",
          "link": "https://www.youtube.com/watch?v=EKYH8EhJJno",
          "start": 0
        }
      ]
    },
    {
      "title": "high school of the dead",
      "url": [
        {
          "name": "Opening 1",
          "link": "https://www.youtube.com/watch?v=TQwQMeb-44g",
          "start": 0
        }
      ]
    },
    {
      "title": "hunter x hunter",
      "url": [
        {
          "name": "Ost - Legend of the Martial Artist",
          "link": "https://www.youtube.com/watch?v=QF5RedxgHKA",
          "start": 0
        }
      ]
    },
    {
      "title": "il etait une fois la vie",
      "url": [
        {
          "name": "Generique",
          "link": "https://www.youtube.com/watch?v=kNnpHAszq64",
          "start": 0
        }
      ]
    },
    {
      "title": "inazuma eleven",
      "url": [
        {
          "name": "Opening 1",
          "link": "https://www.youtube.com/watch?v=pMTF1RCDmhg",
          "start": 0
        }
      ]
    },
    {
      "title": "Invincible",
      "url": [
        {
          "name": "Invincible theme",
          "link": "https://www.youtube.com/watch?v=gF73gPQQsR4",
          "start": 0
        }
      ]
    },
    {
      "title": "inspecteur gadget",
      "url": [
        {
          "name": "Generique",
          "link": "https://www.youtube.com/watch?v=i0mlC026Wwk",
          "start": 0
        }
      ]
    },
    {
      "title": "jacky chan adventure",
      "url": [
        {
          "name": "Generique",
          "link": "https://www.youtube.com/watch?v=p3RMOO1lP-I",
          "start": 0
        }
      ]
    },
    {
      "title": "jimmy neutron",
      "url": [
        {
          "name": "Generique",
          "link": "https://www.youtube.com/watch?v=8lxchoqEUZg",
          "start": 0
        }
      ]
    },
    {
      "title": "jujutsu kaisen",
      "url": [
        {
          "name": "Opening 3",
          "link": "https://www.youtube.com/watch?v=ju_rQvfBhVY",
          "start": 43
        }
      ]
    },
    {
      "title": "kangoo junior",
      "url": [
        {
          "name": "Generique",
          "link": "https://www.youtube.com/watch?v=gXTL9pMaxhw",
          "start": 5
        }
      ]
    },
    {
      "title": "kill la kill",
      "url": [
        {
          "name": "Opening 2 - GARNiDELiA - ambiguous",
          "link": "https://www.youtube.com/watch?v=qaLeO-2Fytg",
          "start": 0
        }
      ]
    },
    {
      "title": "kim possible",
      "url": [
        {
          "name": "Generique",
          "link": "https://www.youtube.com/watch?v=GkKx5fz31w8",
          "start": 0
        }
      ]
    },
    {
      "title": "kuroko no basket",
      "url": [
        {
          "name": "Opening 3 - GRANRODEO - The Other Self",
          "link": "https://www.youtube.com/watch?v=1lLNvarZE_c",
          "start": 0
        },
        {
          "name": "Opening 1 - GRANRODEO - Can Do",
          "link": "https://www.youtube.com/watch?v=5RVEM8-UKlg",
          "start": 55
        }
      ]
    },
    {
      "title": "l'ane trotro",
      "url": [
        {
          "name": "Generique",
          "link": "https://www.youtube.com/watch?v=j57NOc52Gdk",
          "start": 0
        }
      ]
    },
    {
      "title": "la panthere rose",
      "url": [
        {
          "name": "Generique",
          "link": "https://www.youtube.com/watch?v=cRiPwQuBNCs",
          "start": 0
        }
      ]
    },
    {
      "title": "le dino train",
      "url": [
        {
          "name": "Generique",
          "link": "https://www.youtube.com/watch?v=6H144ZVQ8ic",
          "start": 31
        }
      ]
    },
    {
      "title": "le laboratoire de dexter",
      "url": [
        {
          "name": "Generique",
          "link": "https://www.youtube.com/watch?v=4ZUa5eXQ1X4",
          "start": 0
        }
      ]
    },
    {
      "title": "les razmokets",
      "url": [
        {
          "name": "Generique",
          "link": "https://www.youtube.com/watch?v=DUBudt7vQFc",
          "start": 0
        }
      ]
    },
    {
      "title": "les zinzins de l'espace",
      "url": [
        {
          "name": "Generique",
          "link": "https://www.youtube.com/watch?v=mbd2linSia4",
          "start": 0
        }
      ]
    },
    {
      "title": "lucky luke",
      "url": [
        {
          "name": "Generique",
          "link": "https://www.youtube.com/watch?v=QrDX78AFZo4",
          "start": 0
        }
      ]
    },
    {
      "title": "Lupin III",
      "url": [
        {
          "name": "Theme from Lupin III",
          "link": "https://www.youtube.com/watch?v=KUhHbrJ2lx0",
          "start": 0
        }
      ]
    },
    {
      "title": "made in abyss",
      "url": [
        {
          "name": "Opening 1",
          "link": "https://www.youtube.com/watch?v=e91G8m9uM_0",
          "start": 0
        },
        {
          "name": "The First Layer",
          "link": "https://www.youtube.com/watch?v=NSmukdqyvjU",
          "start": 0
        }
      ]
    },
    {
      "title": "made in abyss movie",
      "url": [
        {
          "name": "The Rumble of Scientific Triumph",
          "link": "https://www.youtube.com/watch?v=n-x4ttQioNw",
          "start": 42
        },
        {
          "name": "Encounter the Umbra Hands",
          "link": "https://www.youtube.com/watch?v=O26W9XFz9Yo",
          "start": 45
        }
      ]
    },
    {
      "title": "made in abyss season 2",
      "url": [
        {
          "name": "Opening 1",
          "link": "https://www.youtube.com/watch?v=KkSBdRFWnnI",
          "start": 0
        }
      ]
    },
    {
      "title": "magi the labyrinth of magic",
      "url": [
        {
          "name": "Opening 1",
          "link": "https://www.youtube.com/watch?v=pwO2AVjTH9k",
          "start": 0
        }
      ]
    },
    {
      "title": "marcelino",
      "url": [
        {
          "name": "Generique",
          "link": "https://www.youtube.com/watch?v=MtLkGTJg-jg",
          "start": 25
        }
      ]
    },
    {
      "title": "marsupilami",
      "url": [
        {
          "name": "Generique",
          "link": "https://www.youtube.com/watch?v=LnIyoJP_o0A",
          "start": 0
        }
      ]
    },
    {
      "title": "martin mystere",
      "url": [
        {
          "name": "Generique",
          "link": "https://www.youtube.com/watch?v=EUuiwzfJt2k",
          "start": 0
        }
      ]
    },
    {
      "title": "mob psycho 100",
      "url": [
        {
          "name": "Opening - 99",
          "link": "https://www.youtube.com/watch?v=Bw-5Lka7gPE",
          "start": 51
        }
      ]
    },
    {
      "title": "my hero academia",
      "url": [
        {
          "name": "Ost - You can become a Hero",
          "link": "https://www.youtube.com/watch?v=n608d8oQiSM",
          "start": 0
        }
      ]
    },
    {
      "title": "nanatsu no taizai",
      "url": [
        {
          "name": "Opening 1 - Ikimonogakari - Netsujou no Spectrum",
          "link": "https://www.youtube.com/watch?v=Oc9NgPgUO3E",
          "start": 3
        }
      ]
    },
    {
      "title": "naruto",
      "url": [
        {
          "name": "Ost - Afternoon of Konoha",
          "link": "https://www.youtube.com/watch?v=qAGvQDoL5s4",
          "start": 0
        }
      ]
    },
    {
      "title": "naruto shippuden",
      "url": [
        {
          "name": "Naruto Bijuu Mode Theme",
          "link": "https://www.youtube.com/watch?v=dodnd6TxPtE",
          "start": 50
        },
        {
          "name": "Itachi Uchiha Theme - Senya",
          "link": "https://www.youtube.com/watch?v=440UkXOXL0E",
          "start": 0
        }
      ]
    },
    {
      "title": "noragami",
      "url": [
        {
          "name": "Opening 1 - Hello Sleepwalkers - Goya wa Machiawase",
          "link": "https://www.youtube.com/watch?v=gWCnKoEgfP0",
          "start": 40
        },
        {
          "name": "Opening 2 - The Oral Cigarettes - Kyoran Hey Kids",
          "link": "https://www.youtube.com/watch?v=3oFTHxkOzjE",
          "start": 50
        }
      ]
    },
    {
      "title": "oggy et les cafards",
      "url": [
        {
          "name": "Generique",
          "link": "https://www.youtube.com/watch?v=2apJXX46ce0",
          "start": 2
        }
      ]
    },
    {
      "title": "olive et tom",
      "url": [
        {
          "name": "Generique",
          "link": "https://www.youtube.com/watch?v=juQl2UbcD7w",
          "start": 30
        }
      ]
    },
    {
      "title": "one piece",
      "url": [
        {
          "name": "Ost - Three Towers",
          "link": "https://www.youtube.com/watch?v=mFSnaz06n2g",
          "start": 20
        },
        {
          "name": "Opening 18 - GENERATIONS from EXILE TRIBE - Hard Knowk Days",
          "link": "https://www.youtube.com/watch?v=jJHDDYd6PrM",
          "start": 1
        }
      ]
    },
    {
      "title": "one punch man",
      "url": [
        {
          "name": "Ost - Seigi Shikkou",
          "link": "https://www.youtube.com/watch?v=rW7OB_HDCGQ",
          "start": 49
        }
      ]
    },
    {
      "title": "psycho-pass",
      "url": [
        {
          "name": "Opening 2",
          "link": "https://www.youtube.com/watch?v=9StfX1p9LuY",
          "start": 10
        }
      ]
    },
    {
      "title": "rage of bahamut",
      "url": [
        {
          "name": "Opening - SiM - EXiSTENCE",
          "link": "https://www.youtube.com/watch?v=nsi_gBdRdt4",
          "start": 0
        }
      ]
    },
    {
      "title": "rakudai kishi no cavalry",
      "url": [
        {
          "name": "Opening",
          "link": "https://www.youtube.com/watch?v=07sg564pM9U",
          "start": 50
        }
      ]
    },
    {
      "title": "re:creators",
      "url": [
        {
          "name": "Opening 1 - Tielle & Gernie - GravityWall",
          "link": "https://www.youtube.com/watch?v=hHjlQ5DG7KM",
          "start": 0
        }
      ]
    },
    {
      "title": "re:zero",
      "url": [
        {
          "name": "Opening 2 - MYTH & ROID - Parasidus-Paradoxum",
          "link": "https://www.youtube.com/watch?v=iu_0kOfMGD0",
          "start": 58
        }
      ]
    },
    {
      "title": "rick et morty",
      "url": [
        {
          "name": "Opening",
          "link": "https://www.youtube.com/watch?v=E6TUs69Cw94",
          "start": 0
        }
      ]
    },
    {
      "title": "saint seiya",
      "url": [
        {
          "name": "Opening - Make-Up - Pegasus Fantasy",
          "link": "https://www.youtube.com/watch?v=CsCcPHRPnBo",
          "start": 31
        }
      ]
    },
    {
      "title": "shingeki no kyojin",
      "url": [
        {
          "name": "Ost - YouSeeBIGGIRL/T:T",
          "link": "https://www.youtube.com/watch?v=wvFmOIkuOfg",
          "start": 259
        },
        {
          "name": "Final Season Opening 2 - The Rumbling",
          "link": "https://www.youtube.com/watch?v=9l9Wa-5ph6o",
          "start": 54
        }
      ]
    },
    {
      "title": "shokugeki no soma",
      "url": [
        {
          "name": "Ost - The secret ingredient called Victory",
          "link": "https://www.youtube.com/watch?v=i8CqSKbsJ98",
          "start": 0
        }
      ]
    },
    {
      "title": "tales of zesteria the x",
      "url": [
        {
          "name": "Opening - Flow - Kaze no Uta",
          "link": "https://www.youtube.com/watch?v=9vjsu3Lb9Co",
          "start": 50
        }
      ]
    },
    {
      "title": "thomas le train",
      "url": [
        {
          "name": "Main Theme",
          "link": "https://www.youtube.com/watch?v=fkB3F4-NI8A",
          "start": 0
        }
      ]
    },
    {
      "title": "titi et grosminet",
      "url": [
        {
          "name": "Generique",
          "link": "https://www.youtube.com/watch?v=iteNiJUYhvg",
          "start": 0
        }
      ]
    },
    {
      "title": "tortue ninja",
      "url": [
        {
          "name": "Generique",
          "link": "https://www.youtube.com/watch?v=0gCZ4Bc4JOA",
          "start": 0
        }
      ]
    },
    {
      "title": "tottaly spies",
      "url": [
        {
          "name": "Generique anglais",
          "link": "https://www.youtube.com/watch?v=ZkZhhCZbMiQ",
          "start": 7
        },
        {
          "name": "Generique francais",
          "link": "https://www.youtube.com/watch?v=cG-tr6FGHns",
          "start": 0
        }
      ]
    },
    {
      "title": "Transformers Prime",
      "url": [
        {
          "name": "Transformers Prime Theme",
          "link": "https://www.youtube.com/watch?v=x4kKXS0sf7U",
          "start": 0
        }
      ]
    },
    {
      "title": "vinland saga",
      "url": [
        {
          "name": "Opening 1 - Survive Said The Prophet - MUKANJYO",
          "link": "https://www.youtube.com/watch?v=7U7BDn-gU18",
          "start": 28
        }
      ]
    },
    {
      "title": "violet evergarden",
      "url": [
        {
          "name": "Opening - TRUE - Sincerely",
          "link": "https://www.youtube.com/watch?v=rh-xfHTJp6M",
          "start": 0
        }
      ]
    },
    {
      "title": "woody woodpecker",
      "url": [
        {
          "name": "Generique",
          "link": "https://www.youtube.com/watch?v=1PWcc3y_NlY",
          "start": 0
        }
      ]
    },
    {
      "title": "yakari",
      "url": [
        {
          "name": "Generique",
          "link": "https://www.youtube.com/watch?v=IXWsy5ZKW3E",
          "start": 3
        }
      ]
    },
    {
      "title": "your name",
      "url": [
        {
          "name": "Mitsuha Theme",
          "link": "https://www.youtube.com/watch?v=iP6ZABrm8Lo",
          "start": 0
        }
      ]
    },
    {
      "title": "yu gi oh",
      "url": [
        {
          "name": "Generique",
          "link": "https://www.youtube.com/watch?v=ErhzuwW9uGs",
          "start": 0
        }
      ]
    }
  ],
  "hard": [
    {
      "title": "ace of diamond",
      "url": [
        {
          "name": "Sawamura Theme - Grow Stronger Day by Day",
          "link": "https://www.youtube.com/watch?v=lx4624150kI",
          "start": 47
        },
        {
          "name": "Opening 1 - Tom-H@ck - Go EXCEED!!",
          "link": "https://www.youtube.com/watch?v=ViBE_zYivNc",
          "start": 46
        },
        {
          "name": "Opening 2 - Tom-H@ck - Perfect HERO",
          "link": "https://www.youtube.com/watch?v=CfZQBj-1PKg",
          "start": 0
        }
      ]
    },
    {
      "title": "Adventure Time",
      "url": [
        {
          "name": "Outro",
          "link": "https://www.youtube.com/watch?v=CbCLr4RzZSM",
          "start": 0
        }
      ]
    },
    {
      "title": "alien bazar",
      "url": [
        {
          "name": "Generique 2",
          "link": "https://www.youtube.com/watch?v=TAyi4pJB-Oo",
          "start": 0
        },
        {
          "name": "Generique",
          "link": "https://www.youtube.com/watch?v=Bc5dBcZFB5I",
          "start": 10
        }
      ]
    },
    {
      "title": "ao no exorcist",
      "url": [
        {
          "name": "Opening 2 - ROOKiEZ is PUNK'D - In My World",
          "link": "https://www.youtube.com/watch?v=Ir2m2FUXAiI",
          "start": 15
        }
      ]
    },
    {
      "title": "atomic betty",
      "url": [
        {
          "name": "Generique",
          "link": "https://www.youtube.com/watch?v=cMLHQHKN8vY",
          "start": 0
        }
      ]
    },
    {
      "title": "bakemonogatari",
      "url": [
        {
          "name": "Opening",
          "link": "https://www.youtube.com/watch?v=uKxyLmbOc0Q",
          "start": 0
        }
      ]
    },
    {
      "title": "baki",
      "url": [
        {
          "name": "Opening 1 - GRANRODEO - Beastful",
          "link": "https://www.youtube.com/watch?v=FMXxZ-vQ0EA",
          "start": 11
        }
      ]
    },
    {
      "title": "beck",
      "url": [
        {
          "name": "Opening",
          "link": "https://www.youtube.com/watch?v=3m1nNtWOUWQ",
          "start": 35
        }
      ]
    },
    {
      "title": "beyblade metal fury",
      "url": [
        {
          "name": "Generique",
          "link": "https://www.youtube.com/watch?v=YL2wLEPdr1U",
          "start": 2
        }
      ]
    },
    {
      "title": "bleach: thousand years blood war",
      "url": [
        {
          "name": "Opening Part 1",
          "link": "https://www.youtube.com/watch?v=mjeR7vUrDvM",
          "start": 50
        }
      ]
    },
    {
      "title": "blend-s",
      "url": [
        {
          "name": "Opening - Bon AppetitS",
          "link": "https://www.youtube.com/watch?v=JXeYoa2eWLc",
          "start": 0
        }
      ]
    },
    {
      "title": "blue lock",
      "url": [
        {
          "name": "Opening 1 - Chaos ga Kiwamaru",
          "link": "https://www.youtube.com/watch?v=5Iv3Fi8eb7w",
          "start": 15
        },
        {
          "name": "Opening 2 - Judgement",
          "link": "https://www.youtube.com/watch?v=y8B6-Eot9iI",
          "start": 48
        }
      ]
    },
    {
      "title": "bob le bricoleur",
      "url": [
        {
          "name": "Generique",
          "link": "https://www.youtube.com/watch?v=XTIDgq-taCo",
          "start": 0
        }
      ]
    },
    {
      "title": "cedric",
      "url": [
        {
          "name": "Generique",
          "link": "https://www.youtube.com/watch?v=5TZNL7SWUkA",
          "start": 22
        }
      ]
    },
    {
      "title": "charlotte aux fraises",
      "url": [
        {
          "name": "Generique",
          "link": "https://www.youtube.com/watch?v=S1dY3jlpasw",
          "start": 0
        }
      ]
    },
    {
      "title": "classroom of the elite",
      "url": [
        {
          "name": "Opening - ZAQ - Caste Room",
          "link": "https://www.youtube.com/watch?v=hsfBOwAIhOw",
          "start": 55
        }
      ]
    },
    {
      "title": "code lyoko",
      "url": [
        {
          "name": "Generique",
          "link": "https://www.youtube.com/watch?v=GOADRla8JJA",
          "start": 52
        }
      ]
    },
    {
      "title": "danmachi",
      "url": [
        {
          "name": "Opening",
          "link": "https://www.youtube.com/watch?v=0H_RCGEcjhs",
          "start": 46
        }
      ]
    },
    {
      "title": "darling in the FRANXX",
      "url": [
        {
          "name": "Opening",
          "link": "https://www.youtube.com/watch?v=hCzkkHwR2gg",
          "start": 54
        }
      ]
    },
    {
      "title": "days",
      "url": [
        {
          "name": "Opening 2",
          "link": "https://www.youtube.com/watch?v=hmHA51KXCok",
          "start": 41
        }
      ]
    },
    {
      "title": "deadman wonderland",
      "url": [
        {
          "name": "Opening - DWB - One Reason ft. fade",
          "link": "https://www.youtube.com/watch?v=_5WvUPHF5f8",
          "start": 4
        }
      ]
    },
    {
      "title": "demon slayer",
      "url": [
        {
          "name": "Opening 3 - Aimer - Zankyou Zanka",
          "link": "https://www.youtube.com/watch?v=p1o2Q9gj3CI",
          "start": 5
        }
      ]
    },
    {
      "title": "divine gate",
      "url": [
        {
          "name": "Opening",
          "link": "https://www.youtube.com/watch?v=WLWD-DcP0ko",
          "start": 49
        }
      ]
    },
    {
      "title": "dragon ball super",
      "url": [
        {
          "name": "Ultra Instinct Theme",
          "link": "https://www.youtube.com/watch?v=h8qg-XzHgUk",
          "start": 0
        }
      ]
    },
    {
      "title": "dragon ball z",
      "url": [
        {
          "name": "Opening 2 - Hironobu Kageyama - We Gotta Power",
          "link": "https://www.youtube.com/watch?v=QSOjj8Q_9b4",
          "start": 10
        }
      ]
    },
    {
      "title": "dragon ball gt",
      "url": [
        {
          "name": "Opening - Dan Dan Kokoro Hikareteku",
          "link": "https://www.youtube.com/watch?v=uC8sc0cQa9M",
          "start": 67
        }
      ]
    },
    {
      "title": "dororo",
      "url": [
        {
          "name": "Opening",
          "link": "https://www.youtube.com/watch?v=FgQR2O8PGf4",
          "start": 48
        }
      ]
    },
    {
      "title": "Ergo Proxy",
      "url": [
        {
          "name": "Wasteland Nostalgia",
          "link": "https://www.youtube.com/watch?v=EJEZaSp6Yt4",
          "start": 73
        }
      ]
    },
    {
      "title": "fairy tail",
      "url": [
        {
          "name": "Opening 21 - EDGE of LIFE - Believe in Myself",
          "link": "https://www.youtube.com/watch?v=MkBVsAYUc-g",
          "start": 0
        },
        {
          "name": "Ost - A new Adventure",
          "link": "https://www.youtube.com/watch?v=cR1aShmZy0U",
          "start": 58
        }
      ]
    },
    {
      "title": "fineas et pherb",
      "url": [
        {
          "name": "Generique",
          "link": "https://www.youtube.com/watch?v=aQlWZ3nY9UY",
          "start": 4
        }
      ]
    },
    {
      "title": "fish n chips",
      "url": [
        {
          "name": "Generique",
          "link": "https://www.youtube.com/watch?v=rNovt36DVCA",
          "start": 0
        }
      ]
    },
    {
      "title": "galactik football",
      "url": [
        {
          "name": "Generique",
          "link": "https://www.youtube.com/watch?v=0u0bm_0fDpY",
          "start": 0
        }
      ]
    },
    {
      "title": "gambling school",
      "url": [
        {
          "name": "Opening",
          "link": "https://www.youtube.com/watch?v=Lb3Q5WwogFg",
          "start": 62
        }
      ]
    },
    {
      "title": "garfield",
      "url": [
        {
          "name": "Generique",
          "link": "https://www.youtube.com/watch?v=Q-ZcjudPPw4",
          "start": 0
        }
      ]
    },
    {
      "title": "georges de la jungle",
      "url": [
        {
          "name": "Generique",
          "link": "https://www.youtube.com/watch?v=irjjzSPA4BQ",
          "start": 0
        }
      ]
    },
    {
      "title": "gintama",
      "url": [
        {
          "name": "Opening 3 - Giniro no Sora",
          "link": "https://www.youtube.com/watch?v=VK4PzsjNCRE",
          "start": 57
        }
      ]
    },
    {
      "title": "gormiti",
      "url": [
        {
          "name": "Generique",
          "link": "https://www.youtube.com/watch?v=g10ap4qrYlI",
          "start": 0
        }
      ]
    },
    {
      "title": "guilty crown",
      "url": [
        {
          "name": "Opening 2 - Egoist - Everlasting",
          "link": "https://www.youtube.com/watch?v=Hv4znGv6lzg",
          "start": 49
        },
        {
          "name": "Opening 1",
          "link": "https://www.youtube.com/watch?v=DjUtmbZt8zc",
          "start": 61
        }
      ]
    },
    {
      "title": "gurren lagann",
      "url": [
        {
          "name": "Opening 1",
          "link": "https://www.youtube.com/watch?v=FwgMxjhXkKo",
          "start": 47
        }
      ]
    },
    {
      "title": "haikyuu",
      "url": [
        {
          "name": "Opening 4 - Burnout Syndromes - Fly High",
          "link": "https://www.youtube.com/watch?v=kDfqdmrRRSA",
          "start": 0
        },
        {
          "name": "Karasuno vs Shiratorizawa Theme - The Battle of Concepts",
          "link": "https://www.youtube.com/watch?v=UwjH9Hhm048",
          "start": 75
        },
        {
          "name": "Saison 3 - Opening - Burnout Syndromes - Hikari Are",
          "link": "https://www.youtube.com/watch?v=OTio-0LwlXE",
          "start": 30
        }
      ]
    },
    {
      "title": "hokuto no ken",
      "url": [
        {
          "name": "Ost - Ai wo torimodose",
          "link": "https://www.youtube.com/watch?v=BbaaI5xf4y8",
          "start": 0
        }
      ]
    },
    {
      "title": "hunter x hunter",
      "url": [
        {
          "name": "Ending 3",
          "link": "https://www.youtube.com/watch?v=fhAKgOvIQsM",
          "start": 0
        }
      ]
    },
    {
      "title": "il etait une fois l'homme",
      "url": [
        {
          "name": "Generique",
          "link": "https://www.youtube.com/watch?v=igSecV-wUj4",
          "start": 0
        }
      ]
    },
    {
      "title": "johnny test",
      "url": [
        {
          "name": "Generique",
          "link": "https://www.youtube.com/watch?v=qexIzdAenC4",
          "start": 12
        }
      ]
    },
    {
      "title": "kaguya-sama: love is war",
      "url": [
        {
          "name": "Opening",
          "link": "https://www.youtube.com/watch?v=lTlzDfhPtFA",
          "start": 51
        }
      ]
    },
    {
      "title": "kid paddle",
      "url": [
        {
          "name": "Generique",
          "link": "https://www.youtube.com/watch?v=gUzx4rMiJf4",
          "start": 2
        }
      ]
    },
    {
      "title": "Komi San can't communicate",
      "url": [
        {
          "name": "Opening",
          "link": "https://www.youtube.com/watch?v=pRFgMtHtvYY",
          "start": 0
        }
      ]
    },
    {
      "title": "konosuba",
      "url": [
        {
          "name": "Opening 2 - Tomorrow",
          "link": "https://www.youtube.com/watch?v=vdcddjV0l5o",
          "start": 59
        }
      ]
    },
    {
      "title": "koutetsujou no kabaneri",
      "url": [
        {
          "name": "Opening",
          "link": "https://www.youtube.com/watch?v=wHgAuidDaT4",
          "start": 47
        }
      ]
    },
    {
      "title": "l'ile aux enfants",
      "url": [
        {
          "name": "Generique",
          "link": "https://www.youtube.com/watch?v=8_wehKqaG24",
          "start": 2
        }
      ]
    },
    {
      "title": "la bande a piscou",
      "url": [
        {
          "name": "Generique",
          "link": "https://www.youtube.com/watch?v=xV00y9FM9Y8",
          "start": 0
        }
      ]
    },
    {
      "title": "la famille pirate",
      "url": [
        {
          "name": "Generique",
          "link": "https://www.youtube.com/watch?v=XDNyJbqmLCE",
          "start": 0
        }
      ]
    },
    {
      "title": "la météo de gulli",
      "url": [
        {
          "name": "Generique",
          "link": "https://www.youtube.com/watch?v=H-nnoTDofow",
          "start": 0
        }
      ]
    },
    {
      "title": "le bus magique",
      "url": [
        {
          "name": "Generique",
          "link": "https://www.youtube.com/watch?v=LrvQAlOGXdI",
          "start": 7
        }
      ]
    },
    {
      "title": "le monde fou de tex avery",
      "url": [
        {
          "name": "Generique",
          "link": "https://www.youtube.com/watch?v=QLRADI_lcvg",
          "start": 6
        }
      ]
    },
    {
      "title": "le petit nicolas",
      "url": [
        {
          "name": "Generique",
          "link": "https://www.youtube.com/watch?v=8QZVr_Kd21A",
          "start": 0
        }
      ]
    },
    {
      "title": "leonard",
      "url": [
        {
          "name": "Generique",
          "link": "https://www.youtube.com/watch?v=GDYSWgC-hUM",
          "start": 5
        }
      ]
    },
    {
      "title": "les aventures de tintin",
      "url": [
        {
          "name": "Generique",
          "link": "https://www.youtube.com/watch?v=OA19qsb2rKU",
          "start": 3
        }
      ]
    },
    {
      "title": "les daltons",
      "url": [
        {
          "name": "Generique",
          "link": "https://www.youtube.com/watch?v=hmW3uCRA-Jk",
          "start": 5
        }
      ]
    },
    {
      "title": "les histoires du pere castor",
      "url": [
        {
          "name": "Generique",
          "link": "https://www.youtube.com/watch?v=MpLpQmBxrlc",
          "start": 10
        }
      ]
    },
    {
      "title": "les minijusticiers",
      "url": [
        {
          "name": "Generique",
          "link": "https://www.youtube.com/watch?v=7PYUhpqM0cY",
          "start": 0
        }
      ]
    },
    {
      "title": "les mysterieuses cites d'or",
      "url": [
        {
          "name": "Generique",
          "link": "https://www.youtube.com/watch?v=7Z25kW7ewEc",
          "start": 3
        }
      ]
    },
    {
      "title": "linus et boom",
      "url": [
        {
          "name": "Generique",
          "link": "https://www.youtube.com/watch?v=s_-Nm0GEIIQ",
          "start": 0
        }
      ]
    },
    {
      "title": "log horizon",
      "url": [
        {
          "name": "Opening",
          "link": "https://www.youtube.com/watch?v=lb-4z6mOPHc",
          "start": 3
        }
      ]
    },
    {
      "title": "martin matin",
      "url": [
        {
          "name": "Generique",
          "link": "https://www.youtube.com/watch?v=CuERzx4JNUs",
          "start": 7
        }
      ]
    },
    {
      "title": "miraculous",
      "url": [
        {
          "name": "Generique",
          "link": "https://www.youtube.com/watch?v=IrPEf0xUHMg",
          "start": 35
        }
      ]
    },
    {
      "title": "mirrai nikki",
      "url": [
        {
          "name": "Opening 1",
          "link": "https://www.youtube.com/watch?v=DU4IelmT1ow",
          "start": 2
        }
      ]
    },
    {
      "title": "my hero academia",
      "url": [
        {
          "name": "Almight Theme - Almight with U.A. Students",
          "link": "https://www.youtube.com/watch?v=HIBoopR-NvU",
          "start": 101
        },
        {
          "name": "Opening 11 - Bokurano - Eve",
          "link": "https://www.youtube.com/watch?v=ME5ZCIMUN3s",
          "start": 33
        }
      ]
    },
    {
      "title": "nanatsu no taizai",
      "url": [
        {
          "name": "Opening 2",
          "link": "https://www.youtube.com/watch?v=U8_Kb96PUfE",
          "start": 62
        }
      ]
    },
    {
      "title": "ninjago",
      "url": [
        {
          "name": "Generique",
          "link": "https://www.youtube.com/watch?v=aR6RDmtfjjA",
          "start": 0
        }
      ]
    },
    {
      "title": "one piece",
      "url": [
        {
          "name": "Stampede Theme Song - WANIMA - GONG",
          "link": "https://www.youtube.com/watch?v=729bFNidQTU",
          "start": 22
        },
        {
          "name": "Binks no Sake - Brook",
          "link": "https://www.youtube.com/watch?v=Ixs86lmuJbs",
          "start": 16
        }
      ]
    },
    {
      "title": "ouran high school host club",
      "url": [
        {
          "name": "Opening",
          "link": "https://www.youtube.com/watch?v=QXSBh4gtQ7g",
          "start": 0
        }
      ]
    },
    {
      "title": "oussama ranking",
      "url": [
        {
          "name": "Opening 1 - BOY",
          "link": "https://www.youtube.com/watch?v=PN7b30letP4",
          "start": 60
        }
      ]
    },
    {
      "title": "overlord",
      "url": [
        {
          "name": "Opening 3 - MYTH & ROID - VORACITY",
          "link": "https://www.youtube.com/watch?v=vci9YwpFFcA",
          "start": 56
        }
      ]
    },
    {
      "title": "pacman",
      "url": [
        {
          "name": "Generique",
          "link": "https://www.youtube.com/watch?v=J_bqPbmBa4M",
          "start": 4
        }
      ]
    },
    {
      "title": "pokemon",
      "url": [
        {
          "name": "Opening 5 - La Quete Ultime",
          "link": "https://www.youtube.com/watch?v=CTq2fzdP7FI",
          "start": 4
        },
        {
          "name": "Battle Theme",
          "link": "https://www.youtube.com/watch?v=3pPR6IOV7Rg",
          "start": 0
        },
        {
          "name": "Opening 8 - Advanced Battle",
          "link": "https://www.youtube.com/watch?v=nfowKC-Qk2U",
          "start": 0
        }
      ]
    },
    {
      "title": "prison school",
      "url": [
        {
          "name": "Opening",
          "link": "https://www.youtube.com/watch?v=O-UWCu7v-3I",
          "start": 62
        }
      ]
    },
    {
      "title": "promare",
      "url": [
        {
          "name": "Superfly - Kakusei (Promare movie soundtrack) [with lyrics]",
          "link": "https://www.youtube.com/watch?v=SzSBaYubCqE",
          "start": 41
        }
      ]
    },
    {
      "title": "robocar poli",
      "url": [
        {
          "name": "Generique",
          "link": "https://www.youtube.com/watch?v=DE09Q2rcybs",
          "start": 3
        }
      ]
    },
    {
      "title": "rolie polie olie",
      "url": [
        {
          "name": "Generique",
          "link": "https://www.youtube.com/watch?v=sfnTdEb2vHk",
          "start": 21
        }
      ]
    },
    {
      "title": "sam le pompier",
      "url": [
        {
          "name": "Generique",
          "link": "https://www.youtube.com/watch?v=HVbLlzI54ng",
          "start": 9
        }
      ]
    },
    {
      "title": "samsam",
      "url": [
        {
          "name": "Generique",
          "link": "https://www.youtube.com/watch?v=q_vAWijsUaQ",
          "start": 4
        }
      ]
    },
    {
      "title": "scan 2 go",
      "url": [
        {
          "name": "Generique",
          "link": "https://www.youtube.com/watch?v=Xh51yqv0Vyw",
          "start": 32
        }
      ]
    },
    {
      "title": "shokugeki no soma",
      "url": [
        {
          "name": "Ost - The texture of a decisive battle",
          "link": "https://www.youtube.com/watch?v=THOLbnUkc9U",
          "start": 29
        }
      ]
    },
    {
      "title": "shuriken school",
      "url": [
        {
          "name": "Generique",
          "link": "https://www.youtube.com/watch?v=QJmYXKIHN4A",
          "start": 3
        }
      ]
    },
    {
      "title": "sonic x",
      "url": [
        {
          "name": "Opening - Joseph Garrity - Gotta Go Fast",
          "link": "https://www.youtube.com/watch?v=mafrS5fdMlo",
          "start": 0
        }
      ]
    },
    {
      "title": "soul eater",
      "url": [
        {
          "name": "Opening 2 - Papermoon",
          "link": "https://www.youtube.com/watch?v=-eYK3YP524A",
          "start": 46
        }
      ]
    },
    {
      "title": "souvenir de gravity falls",
      "url": [
        {
          "name": "Generique",
          "link": "https://www.youtube.com/watch?v=cGetgdVe3JY",
          "start": 2
        }
      ]
    },
    {
      "title": "spy x family",
      "url": [
        {
          "name": "Opening - Mixed Nuts",
          "link": "https://www.youtube.com/watch?v=Wf8XuAoCjN8",
          "start": 56
        }
      ]
    },
    {
      "title": "steins;gates",
      "url": [
        {
          "name": "Opening",
          "link": "https://www.youtube.com/watch?v=1xJbdY9B3A8",
          "start": 57
        }
      ]
    },
    {
      "title": "sword art online alicization",
      "url": [
        {
          "name": "Opening 1 - Lisa - Adamas",
          "link": "https://www.youtube.com/watch?v=5-aazdelI5c",
          "start": 50
        },
        {
          "name": "Ost - In Your Past",
          "link": "https://www.youtube.com/watch?v=h3g5ug67C6c",
          "start": 0
        }
      ]
    },
    {
      "title": "suzume",
      "url": [
        {
          "name": "Ost Suzume - Radwimps",
          "link": "https://www.youtube.com/watch?v=Xs0Lxif1u9E",
          "start": 72
        }
      ]
    },
    {
      "title": "teen titans",
      "url": [
        {
          "name": "Generique",
          "link": "https://www.youtube.com/watch?v=Oo9YSDGZ2CE",
          "start": 0
        }
      ]
    },
    {
      "title": "telletubies",
      "url": [
        {
          "name": "Generique",
          "link": "https://www.youtube.com/watch?v=CXjyLFrwZew",
          "start": 1
        }
      ]
    },
    {
      "title": "Terraformars",
      "url": [
        {
          "name": "Opening - Amazing Break",
          "link": "https://www.youtube.com/watch?v=QW7HU71YRkg",
          "start": 0
        }
      ]
    },
    {
      "title": "the garden of words",
      "url": [
        {
          "name": "Ost - Greenery Rain",
          "link": "https://www.youtube.com/watch?v=PjR2K-3rUaE",
          "start": 0
        }
      ]
    },
    {
      "title": "the god of highschool",
      "url": [
        {
          "name": "Opening",
          "link": "https://www.youtube.com/watch?v=UW_-eBc0U7U",
          "start": 0
        }
      ]
    },
    {
      "title": "the rising of the shield hero",
      "url": [
        {
          "name": "Opening 1",
          "link": "https://www.youtube.com/watch?v=jZvFEtR8RH0",
          "start": 53
        }
      ]
    },
    {
      "title": "titeuf",
      "url": [
        {
          "name": "Generique",
          "link": "https://www.youtube.com/watch?v=LnkmmWcv7x0",
          "start": 0
        }
      ]
    },
    {
      "title": "tokyo revengers",
      "url": [
        {
          "name": "Opening 1 - Cry Baby",
          "link": "https://www.youtube.com/watch?v=6u5GK11Yt7Q",
          "start": 15
        }
      ]
    },
    {
      "title": "tom et jerry",
      "url": [
        {
          "name": "Generique",
          "link": "https://www.youtube.com/watch?v=uJrOUnBdmdw",
          "start": 0
        }
      ]
    },
    {
      "title": "tom sawyer",
      "url": [
        {
          "name": "Generique",
          "link": "https://www.youtube.com/watch?v=PpGRdkQ-co8",
          "start": 0
        }
      ]
    },
    {
      "title": "toupou",
      "url": [
        {
          "name": "Generique",
          "link": "https://www.youtube.com/watch?v=0Joli9LM7ME",
          "start": 15
        }
      ]
    },
    {
      "title": "Transformers Animated",
      "url": [
        {
          "name": "Cybertron",
          "link": "https://www.youtube.com/watch?v=U5lssxhfH8M",
          "start": 0
        }
      ]
    },
    {
      "title": "Transformers Beast Wars",
      "url": [
        {
          "name": "Before the Storm",
          "link": "https://www.youtube.com/watch?v=35i2AYwf5WU",
          "start": 0
        }
      ]
    },
    {
      "title": "wakfu",
      "url": [
        {
          "name": "Generique",
          "link": "https://www.youtube.com/watch?v=I8jUbbVzyIk",
          "start": 16
        }
      ]
    },
    {
      "title": "your name",
      "url": [
        {
          "name": "Ost - School Road",
          "link": "https://www.youtube.com/watch?v=wIUXC9fxAt8",
          "start": 0
        }
      ]
    },
    {
      "title": "yu gi oh gx",
      "url": [
        {
          "name": "Generique",
          "link": "https://www.youtube.com/watch?v=4yzssYYz9mw",
          "start": 3
        }
      ]
    },
    {
      "title": "zig et sharko",
      "url": [
        {
          "name": "Generique",
          "link": "https://www.youtube.com/watch?v=deir3mr19MA",
          "start": 1
        }
      ]
    }
  ]
}
